<?xml version="1.0" encoding="UTF-8" standalone="no"?>
<!-- Created with Inkscape (http://www.inkscape.org/) -->

<svg
   xmlns:dc="http://purl.org/dc/elements/1.1/"
   xmlns:cc="http://creativecommons.org/ns#"
   xmlns:rdf="http://www.w3.org/1999/02/22-rdf-syntax-ns#"
   xmlns:svg="http://www.w3.org/2000/svg"
   xmlns="http://www.w3.org/2000/svg"
   xmlns:sodipodi="http://sodipodi.sourceforge.net/DTD/sodipodi-0.dtd"
   xmlns:inkscape="http://www.inkscape.org/namespaces/inkscape"
   width="612.6485"
   height="639.93121"
   id="svg5881"
   version="1.1"
   inkscape:version="0.48.1 "
   sodipodi:docname="booleans_example1.svg">
  <defs
     id="defs5883" />
  <sodipodi:namedview
     id="base"
     pagecolor="#ffffff"
     bordercolor="#666666"
     borderopacity="1.0"
     inkscape:pageopacity="0.0"
     inkscape:pageshadow="2"
     inkscape:zoom="0.98994949"
     inkscape:cx="223.6416"
     inkscape:cy="291.24952"
     inkscape:document-units="px"
     inkscape:current-layer="layer1"
     showgrid="false"
     inkscape:window-width="1920"
     inkscape:window-height="1005"
     inkscape:window-x="-9"
     inkscape:window-y="-9"
     inkscape:window-maximized="1"
     fit-margin-top="0"
     fit-margin-left="0"
     fit-margin-right="0"
     fit-margin-bottom="0" />
  <metadata
     id="metadata5886">
    <rdf:RDF>
      <cc:Work
         rdf:about="">
        <dc:format>image/svg+xml</dc:format>
        <dc:type
           rdf:resource="http://purl.org/dc/dcmitype/StillImage" />
        <dc:title />
      </cc:Work>
    </rdf:RDF>
  </metadata>
  <g
     inkscape:label="Layer 1"
     inkscape:groupmode="layer"
     id="layer1"
     transform="translate(67.54442,-221.72266)">
    <text
       xml:space="preserve"
       style="font-size:25px;font-style:normal;font-variant:normal;font-weight:normal;font-stretch:normal;text-align:start;line-height:125%;letter-spacing:0px;word-spacing:0px;writing-mode:lr-tb;text-anchor:start;fill:#000000;fill-opacity:1;stroke:none;font-family:Arial;-inkscape-font-specification:Arial"
       x="354.31586"
       y="640.21997"
       id="text5908"
       sodipodi:linespacing="125%"><tspan
         sodipodi:role="line"
         id="tspan5910"
         x="354.31586"
         y="640.21997">A &amp;&amp; B</tspan></text>
    <rect
       style="fill:#ffffff;fill-opacity:1;stroke:none"
       id="rect5938"
       width="304.05591"
       height="174.75639"
       x="241.04819"
       y="436.37961" />
    <path
       transform="matrix(0.65213145,0,0,0.65213145,678.25735,14.931041)"
       d="m -400,779.50507 a 120,120 0 1 1 -240,0 120,120 0 1 1 240,0 z"
       sodipodi:ry="120"
       sodipodi:rx="120"
       sodipodi:cy="779.50507"
       sodipodi:cx="-520"
       id="path5771"
       style="fill:#ffffff;fill-opacity:1;stroke:#1d6800;stroke-width:2;stroke-linecap:butt;stroke-miterlimit:4;stroke-opacity:1;stroke-dasharray:none;stroke-dashoffset:0"
       sodipodi:type="arc" />
    <path
       sodipodi:type="arc"
       style="fill:#ffffff;fill-opacity:0;stroke:#1d6800;stroke-width:2;stroke-linecap:butt;stroke-miterlimit:4;stroke-opacity:1;stroke-dasharray:none;stroke-dashoffset:0"
       id="path5773"
       sodipodi:cx="-520"
       sodipodi:cy="779.50507"
       sodipodi:rx="120"
       sodipodi:ry="120"
       d="m -400,779.50507 a 120,120 0 1 1 -240,0 120,120 0 1 1 240,0 z"
       transform="matrix(0.65213145,0,0,0.65213145,786.32485,14.931041)" />
    <path
       id="path5775"
       d="m 393.17691,466.67179 c -14.92449,14.2501 -24.21036,34.32852 -24.21036,56.59279 0,22.26426 9.28587,42.36306 24.21036,56.61316 14.92439,-14.2501 24.23078,-34.3489 24.23078,-56.61316 0,-22.26427 -9.30639,-42.34269 -24.23078,-56.59279 z"
       style="fill:#cdffba;fill-opacity:1;stroke:#1d6800;stroke-width:1.30426288;stroke-linecap:butt;stroke-miterlimit:4;stroke-opacity:1;stroke-dasharray:none;stroke-dashoffset:0"
       inkscape:connector-curvature="0" />
    <text
       xml:space="preserve"
       style="font-size:47.57890701px;font-style:normal;font-variant:normal;font-weight:normal;font-stretch:normal;text-align:start;line-height:125%;letter-spacing:0px;word-spacing:0px;writing-mode:lr-tb;text-anchor:start;fill:#000000;fill-opacity:1;stroke:none;font-family:Arial;-inkscape-font-specification:Arial"
       x="323.28162"
       y="540.2998"
       id="text5900"
       sodipodi:linespacing="125%"><tspan
         sodipodi:role="line"
         id="tspan5902"
         x="323.28162"
         y="540.2998">A</tspan></text>
    <text
       sodipodi:linespacing="125%"
       id="text5904"
       y="540.2998"
       x="430.87286"
       style="font-size:47.57890701px;font-style:normal;font-variant:normal;font-weight:normal;font-stretch:normal;text-align:start;line-height:125%;letter-spacing:0px;word-spacing:0px;writing-mode:lr-tb;text-anchor:start;fill:#000000;fill-opacity:1;stroke:none;font-family:Arial;-inkscape-font-specification:Arial"
       xml:space="preserve"><tspan
         y="540.2998"
         x="430.87286"
         id="tspan5906"
         sodipodi:role="line">B</tspan></text>
    <path
       style="fill:none;stroke:#000000;stroke-width:1px;stroke-linecap:butt;stroke-linejoin:miter;stroke-opacity:1"
       d="m 242.05834,651.54211 302.03561,0"
       id="path5936"
       inkscape:connector-curvature="0" />
    <text
       sodipodi:linespacing="125%"
       id="text2993"
       y="640.21997"
       x="52.280258"
       style="font-size:25px;font-style:normal;font-variant:normal;font-weight:normal;font-stretch:normal;text-align:start;line-height:125%;letter-spacing:0px;word-spacing:0px;writing-mode:lr-tb;text-anchor:start;fill:#000000;fill-opacity:1;stroke:none;font-family:Arial;-inkscape-font-specification:Arial"
       xml:space="preserve"><tspan
         y="640.21997"
         x="52.280258"
         id="tspan2995"
         sodipodi:role="line">A || B</tspan></text>
    <rect
       y="436.37961"
       x="-65.028038"
       height="174.75639"
       width="304.05591"
       id="rect2997"
       style="fill:#ffffff;fill-opacity:1;stroke:none" />
    <path
       sodipodi:type="arc"
       style="fill:#cdffba;fill-opacity:1;stroke:#1d6800;stroke-width:2;stroke-linecap:butt;stroke-miterlimit:4;stroke-opacity:1;stroke-dasharray:none;stroke-dashoffset:0"
       id="path2999"
       sodipodi:cx="-520"
       sodipodi:cy="779.50507"
       sodipodi:rx="120"
       sodipodi:ry="120"
       d="m -400,779.50507 a 120,120 0 1 1 -240,0 120,120 0 1 1 240,0 z"
       transform="matrix(0.65213145,0,0,0.65213145,372.18113,14.931041)" />
    <path
       transform="matrix(0.65213145,0,0,0.65213145,480.24863,14.931041)"
       d="m -400,779.50507 a 120,120 0 1 1 -240,0 120,120 0 1 1 240,0 z"
       sodipodi:ry="120"
       sodipodi:rx="120"
       sodipodi:cy="779.50507"
       sodipodi:cx="-520"
       id="path3001"
       style="fill:#cdffba;fill-opacity:1;stroke:#1d6800;stroke-width:2;stroke-linecap:butt;stroke-miterlimit:4;stroke-opacity:1;stroke-dasharray:none;stroke-dashoffset:0"
       sodipodi:type="arc" />
    <path
       inkscape:connector-curvature="0"
       style="fill:#cdffba;fill-opacity:1;stroke:#1d6800;stroke-width:1.30426288;stroke-linecap:butt;stroke-miterlimit:4;stroke-opacity:1;stroke-dasharray:none;stroke-dashoffset:0"
       d="m 87.100688,466.67179 c -14.92449,14.2501 -24.21036,34.32852 -24.21036,56.59279 0,22.26426 9.28587,42.36306 24.21036,56.61316 14.924392,-14.2501 24.230782,-34.3489 24.230782,-56.61316 0,-22.26427 -9.30639,-42.34269 -24.230782,-56.59279 z"
       id="path3003" />
    <text
       sodipodi:linespacing="125%"
       id="text3005"
       y="540.2998"
       x="17.205395"
       style="font-size:47.57890701px;font-style:normal;font-variant:normal;font-weight:normal;font-stretch:normal;text-align:start;line-height:125%;letter-spacing:0px;word-spacing:0px;writing-mode:lr-tb;text-anchor:start;fill:#000000;fill-opacity:1;stroke:none;font-family:Arial;-inkscape-font-specification:Arial"
       xml:space="preserve"><tspan
         y="540.2998"
         x="17.205395"
         id="tspan3007"
         sodipodi:role="line">A</tspan></text>
    <text
       xml:space="preserve"
       style="font-size:47.57890701px;font-style:normal;font-variant:normal;font-weight:normal;font-stretch:normal;text-align:start;line-height:125%;letter-spacing:0px;word-spacing:0px;writing-mode:lr-tb;text-anchor:start;fill:#000000;fill-opacity:1;stroke:none;font-family:Arial;-inkscape-font-specification:Arial"
       x="124.79664"
       y="540.2998"
       id="text3009"
       sodipodi:linespacing="125%"><tspan
         sodipodi:role="line"
         id="tspan3011"
         x="124.79664"
         y="540.2998">B</tspan></text>
    <path
       inkscape:connector-curvature="0"
       id="path3013"
       d="m -67.04834,651.54211 302.03561,0"
       style="fill:none;stroke:#000000;stroke-width:1px;stroke-linecap:butt;stroke-linejoin:miter;stroke-opacity:1" />
    <text
       xml:space="preserve"
       style="font-size:25px;font-style:normal;font-variant:normal;font-weight:normal;font-stretch:normal;text-align:start;line-height:125%;letter-spacing:0px;word-spacing:0px;writing-mode:lr-tb;text-anchor:start;fill:#000000;fill-opacity:1;stroke:none;font-family:Arial;-inkscape-font-specification:Arial"
       x="368.45801"
       y="426.06763"
       id="text3783"
       sodipodi:linespacing="125%"><tspan
         sodipodi:role="line"
         id="tspan3785"
         x="368.45801"
         y="426.06763">true</tspan></text>
    <rect
       style="fill:#cdffba;fill-opacity:1;stroke:none"
       id="rect3787"
       width="304.05591"
       height="174.75639"
       x="240.03804"
       y="222.22726" />
    <path
       style="fill:none;stroke:#000000;stroke-width:1px;stroke-linecap:butt;stroke-linejoin:miter;stroke-opacity:1"
       d="m 241.04818,434.35931 302.03562,0"
       id="path3803"
       inkscape:connector-curvature="0" />
    <text
       sodipodi:linespacing="125%"
       id="text3805"
       y="426.06763"
       x="60.361492"
       style="font-size:25px;font-style:normal;font-variant:normal;font-weight:normal;font-stretch:normal;text-align:start;line-height:125%;letter-spacing:0px;word-spacing:0px;writing-mode:lr-tb;text-anchor:start;fill:#000000;fill-opacity:1;stroke:none;font-family:Arial;-inkscape-font-specification:Arial"
       xml:space="preserve"><tspan
         y="426.06763"
         x="60.361492"
         id="tspan3807"
         sodipodi:role="line">false</tspan></text>
    <rect
       y="222.22726"
       x="-66.038177"
       height="174.75639"
       width="304.05591"
       id="rect3809"
       style="fill:#ffffff;fill-opacity:1;stroke:none;stroke-opacity:1" />
    <path
       inkscape:connector-curvature="0"
       id="path3811"
       d="m -66.03819,434.35931 302.03561,0"
       style="fill:none;stroke:#000000;stroke-width:1px;stroke-linecap:butt;stroke-linejoin:miter;stroke-opacity:1" />
    <text
       sodipodi:linespacing="125%"
       id="text3813"
       y="856.39264"
       x="73.493515"
       style="font-size:25px;font-style:normal;font-variant:normal;font-weight:normal;font-stretch:normal;text-align:start;line-height:125%;letter-spacing:0px;word-spacing:0px;writing-mode:lr-tb;text-anchor:start;fill:#000000;fill-opacity:1;stroke:none;font-family:Arial;-inkscape-font-specification:Arial"
       xml:space="preserve"><tspan
         y="856.39264"
         x="73.493515"
         id="tspan3815"
         sodipodi:role="line">!A</tspan></text>
    <rect
       y="652.55225"
       x="-66.038162"
       height="174.75639"
       width="304.05591"
       id="rect3817"
       style="fill:#cdffba;fill-opacity:1;stroke:none" />
    <path
       sodipodi:type="arc"
       style="fill:#ffffff;fill-opacity:1;stroke:#1d6800;stroke-width:2;stroke-linecap:butt;stroke-miterlimit:4;stroke-opacity:1;stroke-dasharray:none;stroke-dashoffset:0"
       id="path3819"
       sodipodi:cx="-520"
       sodipodi:cy="779.50507"
       sodipodi:rx="120"
       sodipodi:ry="120"
       d="m -400,779.50507 a 120,120 0 1 1 -240,0 120,120 0 1 1 240,0 z"
       transform="matrix(0.65213145,0,0,0.65213145,423.69891,231.10369)" />
    <text
       sodipodi:linespacing="125%"
       id="text3825"
       y="756.47247"
       x="68.723167"
       style="font-size:47.57890701px;font-style:normal;font-variant:normal;font-weight:normal;font-stretch:normal;text-align:start;line-height:125%;letter-spacing:0px;word-spacing:0px;writing-mode:lr-tb;text-anchor:start;fill:#000000;fill-opacity:1;stroke:none;font-family:Arial;-inkscape-font-specification:Arial"
       xml:space="preserve"><tspan
         y="756.47247"
         x="68.723167"
         id="tspan3827"
         sodipodi:role="line">A</tspan></text>
    <text
       xml:space="preserve"
       style="font-size:25px;font-style:normal;font-variant:normal;font-weight:normal;font-stretch:normal;text-align:start;line-height:125%;letter-spacing:0px;word-spacing:0px;writing-mode:lr-tb;text-anchor:start;fill:#000000;fill-opacity:1;stroke:none;font-family:Arial;-inkscape-font-specification:Arial"
       x="335.12299"
       y="856.39264"
       id="text3835"
       sodipodi:linespacing="125%"><tspan
         sodipodi:role="line"
         id="tspan3837"
         x="335.12299"
         y="856.39264">!(A &amp;&amp; B)</tspan></text>
    <rect
       style="fill:#cdffba;fill-opacity:1;stroke:none"
       id="rect3839"
       width="304.05591"
       height="174.75639"
       x="239.02788"
       y="652.55225" />
    <path
       transform="matrix(0.65213145,0,0,0.65213145,676.23701,231.10369)"
       d="m -400,779.50507 a 120,120 0 1 1 -240,0 120,120 0 1 1 240,0 z"
       sodipodi:ry="120"
       sodipodi:rx="120"
       sodipodi:cy="779.50507"
       sodipodi:cx="-520"
       id="path3841"
       style="fill:#cdffba;fill-opacity:1;stroke:#1d6800;stroke-width:2;stroke-linecap:butt;stroke-miterlimit:4;stroke-opacity:1;stroke-dasharray:none;stroke-dashoffset:0"
       sodipodi:type="arc" />
    <path
       sodipodi:type="arc"
       style="fill:#cdffba;fill-opacity:1;stroke:#1d6800;stroke-width:2;stroke-linecap:butt;stroke-miterlimit:4;stroke-opacity:1;stroke-dasharray:none;stroke-dashoffset:0"
       id="path3843"
       sodipodi:cx="-520"
       sodipodi:cy="779.50507"
       sodipodi:rx="120"
       sodipodi:ry="120"
       d="m -400,779.50507 a 120,120 0 1 1 -240,0 120,120 0 1 1 240,0 z"
       transform="matrix(0.65213145,0,0,0.65213145,784.30461,231.10369)" />
    <path
       id="path3845"
       d="m 391.15661,682.84444 c -14.92449,14.2501 -24.21036,34.32852 -24.21036,56.59279 0,22.26426 9.28587,42.36306 24.21036,56.61316 14.9244,-14.2501 24.2308,-34.3489 24.2308,-56.61316 0,-22.26427 -9.3064,-42.34269 -24.2308,-56.59279 z"
       style="fill:#ffffff;fill-opacity:1;stroke:#1d6800;stroke-width:1.30426288;stroke-linecap:butt;stroke-miterlimit:4;stroke-opacity:1;stroke-dasharray:none;stroke-dashoffset:0"
       inkscape:connector-curvature="0" />
    <text
       xml:space="preserve"
       style="font-size:47.57890701px;font-style:normal;font-variant:normal;font-weight:normal;font-stretch:normal;text-align:start;line-height:125%;letter-spacing:0px;word-spacing:0px;writing-mode:lr-tb;text-anchor:start;fill:#000000;fill-opacity:1;stroke:none;font-family:Arial;-inkscape-font-specification:Arial"
       x="321.26126"
       y="756.47247"
       id="text3847"
       sodipodi:linespacing="125%"><tspan
         sodipodi:role="line"
         id="tspan3849"
         x="321.26126"
         y="756.47247">A</tspan></text>
    <text
       sodipodi:linespacing="125%"
       id="text3851"
       y="756.47247"
       x="428.85257"
       style="font-size:47.57890701px;font-style:normal;font-variant:normal;font-weight:normal;font-stretch:normal;text-align:start;line-height:125%;letter-spacing:0px;word-spacing:0px;writing-mode:lr-tb;text-anchor:start;fill:#000000;fill-opacity:1;stroke:none;font-family:Arial;-inkscape-font-specification:Arial"
       xml:space="preserve"><tspan
         y="756.47247"
         x="428.85257"
         id="tspan3853"
         sodipodi:role="line">B</tspan></text>
  </g>
</svg>
