<?xml version="1.0" encoding="UTF-8" standalone="no"?>
<!-- Created with Inkscape (http://www.inkscape.org/) -->

<svg
   xmlns:dc="http://purl.org/dc/elements/1.1/"
   xmlns:cc="http://creativecommons.org/ns#"
   xmlns:rdf="http://www.w3.org/1999/02/22-rdf-syntax-ns#"
   xmlns:svg="http://www.w3.org/2000/svg"
   xmlns="http://www.w3.org/2000/svg"
   xmlns:sodipodi="http://sodipodi.sourceforge.net/DTD/sodipodi-0.dtd"
   xmlns:inkscape="http://www.inkscape.org/namespaces/inkscape"
   width="637.19629"
   height="240.8349"
   id="svg3156"
   version="1.1"
   inkscape:version="0.48.4 r9939"
   sodipodi:docname="loop_structure.svg">
  <defs
     id="defs3158">
    <inkscape:path-effect
       effect="skeletal"
       id="path-effect4571"
       is_visible="true"
       pattern="m 189.5625,505.94473 0,10 10,-5 z"
       copytype="single_stretched"
       prop_scale="1"
       scale_y_rel="false"
       spacing="0"
       normal_offset="0"
       tang_offset="0"
       prop_units="false"
       vertical_pattern="false"
       fuse_tolerance="0" />
  </defs>
  <sodipodi:namedview
     id="base"
     pagecolor="#ffffff"
     bordercolor="#666666"
     borderopacity="1.0"
     inkscape:pageopacity="0.0"
     inkscape:pageshadow="2"
     inkscape:zoom="1"
     inkscape:cx="350.4375"
     inkscape:cy="120.91745"
     inkscape:document-units="px"
     inkscape:current-layer="layer1"
     showgrid="false"
     fit-margin-top="10"
     fit-margin-left="10"
     fit-margin-right="10"
     fit-margin-bottom="10"
     inkscape:window-width="1366"
     inkscape:window-height="705"
     inkscape:window-x="-8"
     inkscape:window-y="-8"
     inkscape:window-maximized="1" />
  <metadata
     id="metadata3161">
    <rdf:RDF>
      <cc:Work
         rdf:about="">
        <dc:format>image/svg+xml</dc:format>
        <dc:type
           rdf:resource="http://purl.org/dc/dcmitype/StillImage" />
        <dc:title></dc:title>
      </cc:Work>
    </rdf:RDF>
  </metadata>
  <g
     inkscape:label="Layer 1"
     inkscape:groupmode="layer"
     id="layer1"
     transform="translate(-56.5625,-411.94473)">
    <rect
       style="opacity:0.45673079999999999;fill:#bfbfbf;fill-opacity:1;stroke:#000000;stroke-opacity:1;stroke-width:2;stroke-miterlimit:4;stroke-dasharray:none"
       id="rect4535"
       width="69"
       height="127"
       x="585.5625"
       y="516.7796"
       ry="5.787046" />
    <g
       style="font-size:20.68900871px;font-style:normal;font-weight:normal;line-height:125%;letter-spacing:0px;word-spacing:0px;fill:#000000;fill-opacity:1;stroke:none;font-family:Sans"
       id="text3273">
      <path
         d="m 107.53938,564.01373 0,-9.31409 -1.60623,0 0,-1.41429 1.60623,0 0,-1.14153 c -10e-6,-0.7206 0.064,-1.25601 0.19194,-1.60623 0.1751,-0.47141 0.48321,-0.85361 0.92433,-1.14658 0.44112,-0.29295 1.05903,-0.43943 1.85373,-0.43944 0.51183,1e-5 1.07755,0.0606 1.69715,0.18184 l -0.27276,1.58602 c -0.37715,-0.0673 -0.73409,-0.10101 -1.07082,-0.10102 -0.55225,10e-6 -0.94286,0.11787 -1.17184,0.35357 -0.22898,0.23573 -0.34347,0.67685 -0.34347,1.32337 l 0,0.99 2.09113,0 0,1.41429 -2.09113,0 0,9.31409 z"
         style=""
         id="path3248" />
      <path
         d="m 112.16612,558.64954 c 0,-1.98673 0.55224,-3.45826 1.65674,-4.4146 0.92265,-0.79468 2.04734,-1.19203 3.37408,-1.19204 1.47489,10e-6 2.68041,0.48323 3.61654,1.44965 0.93611,0.96643 1.40417,2.30159 1.40418,4.00546 -10e-6,1.38062 -0.2071,2.46659 -0.62127,3.25791 -0.4142,0.79133 -1.01695,1.40587 -1.80827,1.84363 -0.79134,0.43775 -1.65506,0.65663 -2.59118,0.65663 -1.50184,0 -2.71577,-0.48153 -3.64179,-1.44459 -0.92602,-0.96306 -1.38903,-2.35041 -1.38903,-4.16205 z m 1.86888,0 c 0,1.37389 0.29969,2.40261 0.89908,3.08618 0.59939,0.68357 1.35367,1.02536 2.26286,1.02536 0.90245,0 1.65336,-0.34347 2.25276,-1.03041 0.59938,-0.68694 0.89907,-1.73418 0.89908,-3.14174 -1e-5,-1.32673 -0.30138,-2.33188 -0.90413,-3.01546 -0.60276,-0.68357 -1.352,-1.02535 -2.24771,-1.02536 -0.90919,1e-5 -1.66347,0.34011 -2.26286,1.0203 -0.59939,0.68022 -0.89908,1.70726 -0.89908,3.08113 z"
         style=""
         id="path3250" />
      <path
         d="m 124.33909,564.01373 0,-10.72838 1.63654,0 0,1.62643 c 0.41755,-0.76101 0.80311,-1.26275 1.15668,-1.5052 0.35357,-0.24244 0.7425,-0.36367 1.16679,-0.36368 0.61285,10e-6 1.23581,0.19532 1.86888,0.58592 l -0.62633,1.68704 c -0.44449,-0.26264 -0.88898,-0.39397 -1.33347,-0.39398 -0.39735,10e-6 -0.75429,0.11955 -1.07082,0.35863 -0.31653,0.23909 -0.54214,0.57077 -0.67683,0.99505 -0.20205,0.64654 -0.30307,1.35368 -0.30307,2.12143 l 0,5.61674 z"
         style=""
         id="path3252" />
      <path
         d="m 140.48218,568.36772 c -1.00347,-1.26613 -1.85205,-2.74776 -2.54572,-4.44491 -0.69367,-1.69714 -1.04051,-3.45489 -1.04051,-5.27327 0,-1.60285 0.25928,-3.13836 0.77786,-4.60654 0.60612,-1.70386 1.54224,-3.40101 2.80837,-5.09143 l 1.30316,0 c -0.8149,1.40083 -1.35368,2.40093 -1.61632,3.00031 -0.41083,0.9294 -0.73409,1.8992 -0.9698,2.90939 -0.2896,1.2594 -0.43439,2.52552 -0.43439,3.79837 0,3.2394 1.00683,6.47542 3.02051,9.70808 z"
         style=""
         id="path3254" />
      <path
         d="m 143.92698,551.29525 0,-2.09113 1.81837,0 0,2.09113 z m 0,12.71848 0,-10.72838 1.81837,0 0,10.72838 z"
         style=""
         id="path3256" />
      <path
         d="m 148.52341,564.01373 0,-10.72838 1.63654,0 0,1.52541 c 0.78795,-1.17856 1.92612,-1.76785 3.41449,-1.76786 0.64653,10e-6 1.24086,0.11619 1.78302,0.34852 0.54213,0.23236 0.9479,0.5371 1.21729,0.91424 0.26938,0.37715 0.45795,0.82501 0.56572,1.34357 0.0673,0.33674 0.10101,0.92603 0.10102,1.76786 l 0,6.59664 -1.81837,0 0,-6.52592 c -1e-5,-0.74081 -0.0707,-1.29474 -0.21214,-1.66179 -0.14144,-0.36704 -0.39231,-0.65999 -0.75261,-0.87888 -0.36031,-0.21887 -0.78291,-0.32831 -1.26781,-0.32832 -0.77449,10e-6 -1.44291,0.24583 -2.00525,0.73745 -0.56235,0.49164 -0.84353,1.4244 -0.84353,2.79827 l 0,5.85919 z"
         style=""
         id="path3258" />
      <path
         d="m 164.00986,562.3873 0.26266,1.60623 c -0.51184,0.10775 -0.9698,0.16163 -1.37388,0.16163 -0.66001,0 -1.17184,-0.10439 -1.53551,-0.31316 -0.36368,-0.20878 -0.6196,-0.48322 -0.76776,-0.82332 -0.14817,-0.3401 -0.22225,-1.05566 -0.22225,-2.14669 l 0,-6.17235 -1.33347,0 0,-1.41429 1.33347,0 0,-2.65684 1.80827,-1.09102 0,3.74786 1.82847,0 0,1.41429 -1.82847,0 0,6.27337 c 0,0.51858 0.032,0.85195 0.096,1.00011 0.064,0.14816 0.16837,0.26602 0.31317,0.35357 0.14479,0.0875 0.35188,0.13133 0.62127,0.13133 0.20204,0 0.46806,-0.0236 0.79806,-0.0707 z"
         style=""
         id="path3260" />
      <path
         d="m 171.5258,551.29525 0,-2.09113 1.81837,0 0,2.09113 z m 0,12.71848 0,-10.72838 1.81837,0 0,10.72838 z"
         style=""
         id="path3262" />
      <path
         d="m 191.42685,555.30576 -9.77879,0 0,-1.69714 9.77879,0 z m 0,4.49542 -9.77879,0 0,-1.69715 9.77879,0 z"
         style=""
         id="path3264" />
      <path
         d="m 198.97308,559.56883 0,-1.82847 5.58643,0 0,1.82847 z"
         style=""
         id="path3266" />
      <path
         d="m 206.09503,560.10424 1.81837,-0.24245 c 0.20877,1.03041 0.56402,1.77291 1.06576,2.2275 0.50173,0.4546 1.11291,0.68189 1.83353,0.68189 0.8553,0 1.57759,-0.29633 2.16689,-0.88898 0.58928,-0.59265 0.88392,-1.32673 0.88393,-2.20225 -1e-5,-0.8351 -0.27277,-1.52372 -0.81827,-2.06587 -0.54552,-0.54214 -1.23919,-0.81321 -2.08102,-0.81321 -0.34348,0 -0.77113,0.0673 -1.28296,0.20204 l 0.20204,-1.59613 c 0.12122,0.0135 0.21887,0.0202 0.29296,0.0202 0.77448,0 1.47152,-0.20204 2.09112,-0.60613 0.61959,-0.40407 0.92938,-1.02703 0.92939,-1.86888 -10e-6,-0.66672 -0.22562,-1.21897 -0.67684,-1.65673 -0.45123,-0.43775 -1.03378,-0.65662 -1.74765,-0.65664 -0.70715,2e-5 -1.29644,0.22226 -1.76786,0.66674 -0.47143,0.4445 -0.7745,1.11124 -0.90919,2.0002 l -1.81837,-0.32326 c 0.22225,-1.21897 0.72735,-2.16351 1.51531,-2.83363 0.78796,-0.67009 1.76786,-1.00514 2.9397,-1.00515 0.80816,10e-6 1.55234,0.17343 2.23255,0.52025 0.6802,0.34685 1.20046,0.81997 1.56077,1.41934 0.3603,0.5994 0.54045,1.23583 0.54046,1.90929 -1e-5,0.63981 -0.17174,1.22236 -0.5152,1.74766 -0.34348,0.52531 -0.85195,0.94286 -1.52541,1.25265 0.8755,0.20205 1.5557,0.62128 2.04061,1.25771 0.48489,0.63643 0.72734,1.43281 0.72735,2.38913 -1e-5,1.29307 -0.47144,2.38914 -1.41429,3.28822 -0.94287,0.89909 -2.13491,1.34863 -3.57613,1.34863 -1.2998,0 -2.37903,-0.38725 -3.2377,-1.16174 -0.85868,-0.77449 -1.34863,-1.77796 -1.46985,-3.01041 z"
         style=""
         id="path3268" />
      <path
         d="m 218.58117,555.35627 0,-2.07092 2.07092,0 0,2.07092 z m 0,8.65746 0,-2.07092 2.07092,0 0,2.07092 c -10e-6,0.76102 -0.1347,1.37556 -0.40409,1.84363 -0.26939,0.46806 -0.69704,0.83005 -1.28296,1.08597 l -0.5051,-0.77786 c 0.38388,-0.16837 0.66673,-0.41587 0.84857,-0.7425 0.18184,-0.32663 0.28286,-0.79638 0.30307,-1.40924 z"
         style=""
         id="path3270" />
      <path
         d="m 229.59241,551.29525 0,-2.09113 1.81837,0 0,2.09113 z m 0,12.71848 0,-10.72838 1.81837,0 0,10.72838 z"
         style=""
         id="path3272" />
      <path
         d="m 239.69446,557.53832 0,-1.69715 9.8091,-4.14184 0,1.80827 -7.77858,3.19225 7.77858,3.22255 0,1.80827 z"
         style=""
         id="path3274" />
      <path
         d="m 261.57552,555.30576 -9.77879,0 0,-1.69714 9.77879,0 z m 0,4.49542 -9.77879,0 0,-1.69715 9.77879,0 z"
         style=""
         id="path3276" />
      <path
         d="m 269.3339,560.10424 1.81837,-0.24245 c 0.20877,1.03041 0.56402,1.77291 1.06576,2.2275 0.50173,0.4546 1.11291,0.68189 1.83352,0.68189 0.85531,0 1.5776,-0.29633 2.1669,-0.88898 0.58927,-0.59265 0.88392,-1.32673 0.88393,-2.20225 -10e-6,-0.8351 -0.27277,-1.52372 -0.81827,-2.06587 -0.54552,-0.54214 -1.23919,-0.81321 -2.08102,-0.81321 -0.34348,0 -0.77113,0.0673 -1.28297,0.20204 l 0.20205,-1.59613 c 0.12122,0.0135 0.21887,0.0202 0.29296,0.0202 0.77448,0 1.47152,-0.20204 2.09112,-0.60613 0.61959,-0.40407 0.92938,-1.02703 0.92939,-1.86888 -10e-6,-0.66672 -0.22562,-1.21897 -0.67684,-1.65673 -0.45123,-0.43775 -1.03378,-0.65662 -1.74765,-0.65664 -0.70715,2e-5 -1.29644,0.22226 -1.76786,0.66674 -0.47144,0.4445 -0.7745,1.11124 -0.90919,2.0002 l -1.81837,-0.32326 c 0.22225,-1.21897 0.72735,-2.16351 1.51531,-2.83363 0.78796,-0.67009 1.76786,-1.00514 2.9397,-1.00515 0.80816,10e-6 1.55234,0.17343 2.23255,0.52025 0.6802,0.34685 1.20045,0.81997 1.56077,1.41934 0.3603,0.5994 0.54045,1.23583 0.54046,1.90929 -1e-5,0.63981 -0.17174,1.22236 -0.5152,1.74766 -0.34348,0.52531 -0.85195,0.94286 -1.52542,1.25265 0.87551,0.20205 1.55571,0.62128 2.04062,1.25771 0.48489,0.63643 0.72734,1.43281 0.72735,2.38913 -1e-5,1.29307 -0.47144,2.38914 -1.41429,3.28822 -0.94287,0.89909 -2.13491,1.34863 -3.57613,1.34863 -1.2998,0 -2.37903,-0.38725 -3.23771,-1.16174 -0.85867,-0.77449 -1.34862,-1.77796 -1.46984,-3.01041 z"
         style=""
         id="path3278" />
      <path
         d="m 281.82003,555.35627 0,-2.07092 2.07093,0 0,2.07092 z m 0,8.65746 0,-2.07092 2.07093,0 0,2.07092 c -1e-5,0.76102 -0.1347,1.37556 -0.40409,1.84363 -0.26939,0.46806 -0.69704,0.83005 -1.28296,1.08597 l -0.5051,-0.77786 c 0.38388,-0.16837 0.66673,-0.41587 0.84857,-0.7425 0.18184,-0.32663 0.28286,-0.79638 0.30306,-1.40924 z"
         style=""
         id="path3280" />
      <path
         d="m 292.83128,551.29525 0,-2.09113 1.81837,0 0,2.09113 z m 0,12.71848 0,-10.72838 1.81837,0 0,10.72838 z"
         style=""
         id="path3282" />
      <path
         d="m 301.24629,561.61955 0,-4.06103 -4.03072,0 0,-1.69715 4.03072,0 0,-4.03072 1.71735,0 0,4.03072 4.03072,0 0,1.69715 -4.03072,0 0,4.06103 z"
         style=""
         id="path3284" />
      <path
         d="m 313.32835,561.61955 0,-4.06103 -4.03072,0 0,-1.69715 4.03072,0 0,-4.03072 1.71735,0 0,4.03072 4.03072,0 0,1.69715 -4.03072,0 0,4.06103 z"
         style=""
         id="path3286" />
      <path
         d="m 322.78386,568.36772 -1.30316,0 c 2.01367,-3.23266 3.02051,-6.46868 3.02051,-9.70808 0,-1.26611 -0.1448,-2.52213 -0.43439,-3.76806 -0.22898,-1.0102 -0.54888,-1.97999 -0.95969,-2.90939 -0.26266,-0.60612 -0.8048,-1.61632 -1.62643,-3.03062 l 1.30316,0 c 1.26612,1.69042 2.20225,3.38757 2.80837,5.09143 0.51857,1.46818 0.77786,3.00369 0.77786,4.60654 0,1.81838 -0.34852,3.57613 -1.04556,5.27327 -0.69705,1.69715 -1.54393,3.17878 -2.54067,4.44491 z"
         style=""
         id="path3288" />
      <path
         d="m 333.45164,557.83128 c 0.51857,-0.0135 0.94117,-0.15321 1.26781,-0.41924 0.32663,-0.26601 0.54382,-0.63137 0.65158,-1.09607 0.10775,-0.46469 0.165,-1.25938 0.17174,-2.38409 0.007,-1.12468 0.0269,-1.8655 0.0606,-2.22245 0.0606,-0.5657 0.17341,-1.02029 0.33842,-1.36378 0.16499,-0.34345 0.36872,-0.61789 0.61117,-0.82332 0.24245,-0.20539 0.55224,-0.36197 0.92939,-0.46974 0.25591,-0.0673 0.67347,-0.10101 1.25266,-0.10102 l 0.56571,0 0,1.58602 -0.31316,0 c -0.70042,10e-6 -1.16511,0.12629 -1.39409,0.37883 -0.22898,0.25256 -0.34347,0.81659 -0.34347,1.69209 0,1.7645 -0.037,2.8791 -0.11112,3.34378 -0.12123,0.72062 -0.32832,1.27624 -0.62128,1.66684 -0.29296,0.39062 -0.7526,0.73746 -1.37893,1.04051 0.74082,0.30981 1.27791,0.78292 1.61128,1.41934 0.33337,0.63644 0.50005,1.67863 0.50005,3.12659 0,1.31327 0.0135,2.09449 0.0404,2.34368 0.0539,0.45795 0.19025,0.77785 0.40914,0.95969 0.21887,0.18183 0.6482,0.27275 1.28801,0.27276 l 0.31316,0 0,1.58602 -0.56571,0 c -0.66001,-10e-6 -1.13817,-0.0539 -1.4345,-0.16163 -0.43102,-0.15491 -0.78796,-0.40577 -1.07081,-0.75261 -0.28286,-0.34684 -0.46638,-0.78628 -0.55057,-1.31832 -0.0842,-0.53204 -0.12964,-1.40418 -0.13637,-2.61643 -0.007,-1.21224 -0.064,-2.05071 -0.17174,-2.51541 -0.10776,-0.46469 -0.32495,-0.83173 -0.65158,-1.10112 -0.32664,-0.26939 -0.74924,-0.41082 -1.26781,-0.42429 z"
         style=""
         id="path3290" />
      <path
         d="m 129.62247,585.11693 1.84868,-0.16164 c 0.0875,0.74082 0.29127,1.34863 0.61117,1.82342 0.3199,0.4748 0.81658,0.85868 1.49005,1.15164 0.67347,0.29296 1.43112,0.43944 2.27297,0.43944 0.74754,0 1.40754,-0.11112 1.98,-0.33337 0.57244,-0.22224 0.99841,-0.52699 1.27791,-0.91424 0.27948,-0.38724 0.41922,-0.80984 0.41923,-1.2678 -1e-5,-0.46469 -0.1347,-0.87046 -0.40408,-1.2173 -0.2694,-0.34683 -0.71389,-0.63811 -1.33347,-0.87383 -0.39736,-0.15489 -1.27623,-0.39566 -2.63664,-0.7223 -1.36041,-0.32662 -2.31337,-0.63473 -2.85888,-0.92433 -0.70714,-0.37041 -1.23413,-0.83005 -1.58097,-1.37893 -0.34684,-0.54887 -0.52026,-1.16341 -0.52025,-1.84363 -1e-5,-0.74754 0.21214,-1.44627 0.63642,-2.09618 0.42429,-0.64988 1.04388,-1.1432 1.85878,-1.47995 0.8149,-0.33672 1.72071,-0.50509 2.71746,-0.5051 1.09774,1e-5 2.06586,0.1768 2.90434,0.53036 0.83846,0.35358 1.4833,0.87384 1.93454,1.56077 0.45121,0.68695 0.69366,1.4648 0.72735,2.33357 l -1.87898,0.14143 c -0.10104,-0.93611 -0.44282,-1.64326 -1.02536,-2.12143 -0.58256,-0.47815 -1.44292,-0.71724 -2.58108,-0.71725 -1.18531,10e-6 -2.04904,0.21721 -2.59118,0.65158 -0.54214,0.4344 -0.81321,0.95803 -0.81321,1.57087 0,0.53206 0.19193,0.96981 0.57582,1.31327 0.37714,0.34348 1.36208,0.69537 2.95485,1.05567 1.59275,0.36031 2.68545,0.67516 3.27811,0.94454 0.86204,0.39735 1.49846,0.90077 1.90929,1.51025 0.41081,0.6095 0.61622,1.31159 0.61623,2.10628 -1e-5,0.78797 -0.22563,1.53047 -0.67684,2.22751 -0.45124,0.69704 -1.09945,1.23918 -1.94465,1.62643 -0.84521,0.38724 -1.79649,0.58086 -2.85383,0.58087 -1.34021,-1e-5 -2.46322,-0.19531 -3.36903,-0.58592 -0.90582,-0.39062 -1.61633,-0.97822 -2.13153,-1.76281 -0.51521,-0.78459 -0.78628,-1.67189 -0.81322,-2.66189 z"
         style=""
         id="path3292" />
      <path
         d="m 143.79565,594.00673 -0.20204,-1.70724 c 0.39735,0.10775 0.74418,0.16163 1.04051,0.16163 0.40408,0 0.72735,-0.0674 0.9698,-0.20204 0.24245,-0.1347 0.44112,-0.32327 0.59602,-0.56572 0.11449,-0.18183 0.29969,-0.63306 0.55561,-1.35367 0.0337,-0.10102 0.0875,-0.24919 0.16164,-0.44449 l -4.07113,-10.74859 1.9598,0 2.23255,6.21277 c 0.28959,0.78796 0.54888,1.61633 0.77786,2.4851 0.20877,-0.8351 0.45795,-1.65 0.74755,-2.4447 l 2.29317,-6.25317 1.81837,0 -4.08123,10.91022 c -0.43776,1.17857 -0.77786,1.9901 -1.02031,2.4346 -0.32327,0.59938 -0.69368,1.03882 -1.11122,1.31831 -0.41756,0.27949 -0.91593,0.41924 -1.49511,0.41924 -0.35021,0 -0.74082,-0.0741 -1.17184,-0.22225 z"
         style=""
         id="path3294" />
      <path
         d="m 153.49363,586.67264 1.79816,-0.28286 c 0.10102,0.72062 0.38219,1.27287 0.84352,1.65674 0.46133,0.38388 1.10617,0.57582 1.93455,0.57582 0.83509,0 1.45469,-0.17005 1.85878,-0.51015 0.40407,-0.34011 0.60611,-0.73914 0.60612,-1.1971 -1e-5,-0.41081 -0.17848,-0.73408 -0.53541,-0.9698 -0.24919,-0.16162 -0.86878,-0.36703 -1.85878,-0.61622 -1.33347,-0.33673 -2.25781,-0.62801 -2.77301,-0.87383 -0.51521,-0.24581 -0.90582,-0.58591 -1.17184,-1.02031 -0.26602,-0.43438 -0.39903,-0.91422 -0.39903,-1.43954 0,-0.47815 0.10944,-0.92096 0.32831,-1.32842 0.21888,-0.40744 0.51689,-0.74586 0.89404,-1.01526 0.28285,-0.20876 0.66841,-0.38555 1.15668,-0.53035 0.48826,-0.14479 1.01189,-0.21719 1.57087,-0.2172 0.84183,10e-6 1.58097,0.12124 2.2174,0.36368 0.63642,0.24246 1.10617,0.57077 1.40924,0.98495 0.30305,0.41419 0.51183,0.96812 0.62633,1.66178 l -1.77797,0.24245 c -0.0808,-0.55223 -0.31485,-0.98325 -0.70209,-1.29306 -0.38725,-0.30979 -0.93444,-0.46468 -1.64158,-0.46469 -0.83511,10e-6 -1.43113,0.13807 -1.78807,0.41418 -0.35694,0.27613 -0.53541,0.5994 -0.5354,0.9698 -1e-5,0.23572 0.0741,0.44786 0.22224,0.63643 0.14816,0.19531 0.38051,0.35694 0.69704,0.4849 0.18184,0.0674 0.71724,0.22225 1.60623,0.46469 1.28632,0.34348 2.18372,0.62465 2.6922,0.84352 0.50846,0.21889 0.90749,0.5371 1.19709,0.95465 0.28958,0.41755 0.43438,0.93612 0.43439,1.55571 -1e-5,0.60613 -0.1768,1.17689 -0.53036,1.7123 -0.35358,0.53541 -0.86373,0.94959 -1.53046,1.24255 -0.66674,0.29296 -1.42103,0.43944 -2.26286,0.43944 -1.39409,0 -2.45649,-0.28959 -3.1872,-0.86877 -0.73072,-0.57919 -1.19709,-1.43786 -1.39913,-2.57603 z"
         style=""
         id="path3296" />
      <path
         d="m 168.53559,588.24856 0.26265,1.60623 c -0.51184,0.10775 -0.9698,0.16163 -1.37388,0.16163 -0.66,0 -1.17184,-0.10439 -1.53551,-0.31316 -0.36368,-0.20878 -0.6196,-0.48322 -0.76776,-0.82332 -0.14816,-0.3401 -0.22224,-1.05566 -0.22224,-2.14669 l 0,-6.17235 -1.33347,0 0,-1.41429 1.33347,0 0,-2.65684 1.80827,-1.09102 0,3.74786 1.82847,0 0,1.41429 -1.82847,0 0,6.27338 c -1e-5,0.51857 0.032,0.85194 0.096,1.0001 0.064,0.14816 0.16837,0.26602 0.31317,0.35357 0.14479,0.0875 0.35188,0.13133 0.62127,0.13133 0.20204,0 0.46806,-0.0236 0.79807,-0.0707 z"
         style=""
         id="path3298" />
      <path
         d="m 177.64764,586.42009 1.87898,0.23235 c -0.29634,1.09776 -0.84521,1.9497 -1.64663,2.55582 -0.80144,0.60612 -1.82512,0.90918 -3.07103,0.90918 -1.56919,0 -2.81342,-0.48321 -3.73271,-1.44964 -0.91929,-0.96643 -1.37893,-2.32179 -1.37893,-4.06608 0,-1.80489 0.46469,-3.20571 1.39408,-4.20245 0.92939,-0.99673 2.1349,-1.4951 3.61654,-1.49511 1.43448,10e-6 2.60632,0.48828 3.51552,1.4648 0.90917,0.97654 1.36376,2.35042 1.36377,4.12164 -1e-5,0.10776 -0.003,0.26939 -0.0101,0.4849 l -8.00083,0 c 0.0674,1.17857 0.40071,2.08102 1.00011,2.70735 0.59938,0.62633 1.34693,0.93949 2.24265,0.93949 0.66673,0 1.23581,-0.1751 1.70725,-0.52531 0.47142,-0.3502 0.8452,-0.90918 1.12133,-1.67694 z m -5.97032,-2.9397 5.99052,0 c -0.0808,-0.90244 -0.3098,-1.57928 -0.68694,-2.03051 -0.57919,-0.7004 -1.33011,-1.0506 -2.25276,-1.05061 -0.8351,10e-6 -1.5372,0.2795 -2.10627,0.83847 -0.56909,0.55899 -0.88394,1.30654 -0.94455,2.24265 z"
         style=""
         id="path3300" />
      <path
         d="m 181.81979,589.87499 0,-10.72838 1.62643,0 0,1.50521 c 0.33673,-0.5253 0.78459,-0.9479 1.34357,-1.26781 0.55898,-0.31989 1.1954,-0.47984 1.90929,-0.47985 0.79469,10e-6 1.44627,0.16501 1.95475,0.495 0.50846,0.33001 0.86708,0.79134 1.07587,1.38398 0.84856,-1.25264 1.95305,-1.87897 3.31347,-1.87898 1.06407,10e-6 1.88233,0.29466 2.4548,0.88393 0.57243,0.5893 0.85866,1.4968 0.85867,2.72251 l 0,7.36439 -1.80826,0 0,-6.75827 c -2e-5,-0.72734 -0.059,-1.25096 -0.17679,-1.57087 -0.11787,-0.31989 -0.3317,-0.57749 -0.64148,-0.77281 -0.30981,-0.19529 -0.67348,-0.29295 -1.09102,-0.29296 -0.7543,10e-6 -1.38063,0.25088 -1.87898,0.75261 -0.49838,0.50174 -0.74757,1.30485 -0.74756,2.40934 l 0,6.23296 -1.81837,0 0,-6.97041 c 0,-0.80816 -0.14817,-1.41428 -0.44449,-1.81837 -0.29633,-0.40408 -0.78123,-0.60612 -1.45469,-0.60613 -0.51185,10e-6 -0.98496,0.13471 -1.41934,0.40408 -0.43439,0.2694 -0.74924,0.66338 -0.94454,1.18195 -0.19531,0.51857 -0.29297,1.26613 -0.29296,2.24265 l 0,5.56623 z"
         style=""
         id="path3302" />
      <path
         d="m 199.5893,589.87499 0,-2.07092 2.07092,0 0,2.07092 z"
         style=""
         id="path3304" />
      <path
         d="m 204.13523,584.5108 c 0,-1.98673 0.55224,-3.45826 1.65673,-4.4146 0.92266,-0.79468 2.04735,-1.19203 3.37409,-1.19204 1.47489,10e-6 2.6804,0.48323 3.61654,1.44965 0.93611,0.96644 1.40417,2.30159 1.40418,4.00546 -1e-5,1.38062 -0.2071,2.46659 -0.62127,3.25791 -0.4142,0.79133 -1.01695,1.40587 -1.80827,1.84363 -0.79134,0.43776 -1.65506,0.65663 -2.59118,0.65663 -1.50184,0 -2.71577,-0.48153 -3.64179,-1.44459 -0.92602,-0.96306 -1.38903,-2.35041 -1.38903,-4.16205 z m 1.86888,0 c 0,1.37389 0.29969,2.40261 0.89908,3.08618 0.59939,0.68357 1.35367,1.02536 2.26286,1.02536 0.90244,0 1.65336,-0.34347 2.25276,-1.03041 0.59938,-0.68694 0.89907,-1.73418 0.89908,-3.14174 -1e-5,-1.32673 -0.30138,-2.33188 -0.90413,-3.01546 -0.60276,-0.68357 -1.352,-1.02535 -2.24771,-1.02536 -0.90919,1e-5 -1.66347,0.34011 -2.26286,1.02031 -0.59939,0.68021 -0.89908,1.70725 -0.89908,3.08112 z"
         style=""
         id="path3306" />
      <path
         d="m 223.35944,589.87499 0,-1.57592 c -0.83511,1.21225 -1.96991,1.81837 -3.40439,1.81837 -0.63307,0 -1.22404,-0.12122 -1.77292,-0.36367 -0.54888,-0.24245 -0.95633,-0.54719 -1.22234,-0.91424 -0.26603,-0.36704 -0.45291,-0.81658 -0.56067,-1.34862 -0.0741,-0.35694 -0.11112,-0.92265 -0.11112,-1.69715 l 0,-6.64715 1.81837,0 0,5.95011 c 0,0.9496 0.037,1.58939 0.11112,1.91939 0.11449,0.47817 0.35694,0.85363 0.72735,1.12638 0.3704,0.27276 0.82836,0.40914 1.37388,0.40913 0.5455,1e-5 1.05734,-0.13974 1.53551,-0.41923 0.47816,-0.27949 0.81658,-0.66 1.01526,-1.14153 0.19866,-0.48153 0.298,-1.18026 0.29801,-2.09618 l 0,-5.74807 1.81837,0 0,10.72838 z"
         style=""
         id="path3308" />
      <path
         d="m 231.81486,588.24856 0.26265,1.60623 c -0.51184,0.10775 -0.9698,0.16163 -1.37388,0.16163 -0.66,0 -1.17184,-0.10439 -1.53551,-0.31316 -0.36368,-0.20878 -0.6196,-0.48322 -0.76776,-0.82332 -0.14816,-0.3401 -0.22224,-1.05566 -0.22224,-2.14669 l 0,-6.17235 -1.33347,0 0,-1.41429 1.33347,0 0,-2.65684 1.80827,-1.09102 0,3.74786 1.82847,0 0,1.41429 -1.82847,0 0,6.27338 c -1e-5,0.51857 0.032,0.85194 0.096,1.0001 0.064,0.14816 0.16837,0.26602 0.31317,0.35357 0.14479,0.0875 0.35188,0.13133 0.62128,0.13133 0.20203,0 0.46805,-0.0236 0.79806,-0.0707 z"
         style=""
         id="path3310" />
      <path
         d="m 234.09792,589.87499 0,-2.07092 2.07092,0 0,2.07092 z"
         style=""
         id="path3312" />
      <path
         d="m 239.32069,593.98653 0,-14.83992 1.65673,0 0,1.39408 c 0.39061,-0.5455 0.83174,-0.95463 1.32337,-1.22739 0.49163,-0.27275 1.08765,-0.40913 1.78807,-0.40914 0.91591,10e-6 1.72407,0.23573 2.42449,0.70715 0.7004,0.47143 1.22907,1.13649 1.58602,1.99515 0.35693,0.85868 0.5354,1.79986 0.53541,2.82353 -1e-5,1.09776 -0.197,2.08607 -0.59097,2.96495 -0.39399,0.87888 -0.96644,1.55235 -1.71735,2.02041 -0.75093,0.46806 -1.54057,0.70209 -2.36893,0.70209 -0.60613,0 -1.14996,-0.12796 -1.63148,-0.38387 -0.48154,-0.25592 -0.8772,-0.57919 -1.18699,-0.9698 l 0,5.22276 z m 1.64663,-9.41512 c 0,1.38062 0.27949,2.40093 0.83847,3.06093 0.55898,0.66 1.23582,0.99 2.03052,0.99 0.80815,0 1.50014,-0.34179 2.07597,-1.02536 0.57581,-0.68357 0.86371,-1.7426 0.86372,-3.1771 -1e-5,-1.36713 -0.28118,-2.39081 -0.84352,-3.07102 -0.56235,-0.6802 -1.23414,-1.0203 -2.01536,-1.02031 -0.77449,1e-5 -1.45975,0.362 -2.05577,1.08597 -0.59602,0.72399 -0.89403,1.77629 -0.89403,3.15689 z"
         style=""
         id="path3314" />
      <path
         d="m 250.81682,589.87499 0,-10.72838 1.63654,0 0,1.62643 c 0.41755,-0.76101 0.80311,-1.26274 1.15668,-1.5052 0.35357,-0.24244 0.7425,-0.36367 1.16679,-0.36368 0.61285,10e-6 1.23581,0.19532 1.86888,0.58592 l -0.62633,1.68704 c -0.44449,-0.26264 -0.88898,-0.39397 -1.33347,-0.39398 -0.39735,10e-6 -0.75429,0.11955 -1.07082,0.35863 -0.31653,0.23909 -0.54214,0.57077 -0.67683,0.99505 -0.20205,0.64654 -0.30307,1.35368 -0.30307,2.12143 l 0,5.61674 z"
         style=""
         id="path3316" />
      <path
         d="m 257.75694,577.15651 0,-2.09113 1.81837,0 0,2.09113 z m 0,12.71848 0,-10.72838 1.81837,0 0,10.72838 z"
         style=""
         id="path3318" />
      <path
         d="m 262.35337,589.87499 0,-10.72838 1.63653,0 0,1.52541 c 0.78796,-1.17856 1.92612,-1.76785 3.4145,-1.76786 0.64652,10e-6 1.24086,0.11619 1.78301,0.34852 0.54214,0.23236 0.9479,0.53711 1.2173,0.91424 0.26938,0.37715 0.45795,0.82501 0.56571,1.34357 0.0673,0.33675 0.10101,0.92603 0.10102,1.76786 l 0,6.59664 -1.81837,0 0,-6.52592 c 0,-0.74081 -0.0707,-1.29474 -0.21214,-1.66179 -0.14144,-0.36703 -0.3923,-0.65999 -0.7526,-0.87888 -0.36032,-0.21887 -0.78292,-0.32831 -1.26781,-0.32832 -0.7745,10e-6 -1.44291,0.24583 -2.00526,0.73745 -0.56235,0.49164 -0.84352,1.4244 -0.84352,2.79827 l 0,5.85919 z"
         style=""
         id="path3320" />
      <path
         d="m 277.83982,588.24856 0.26265,1.60623 c -0.51184,0.10775 -0.9698,0.16163 -1.37388,0.16163 -0.66,0 -1.17184,-0.10439 -1.53551,-0.31316 -0.36367,-0.20878 -0.61959,-0.48322 -0.76775,-0.82332 -0.14817,-0.3401 -0.22225,-1.05566 -0.22225,-2.14669 l 0,-6.17235 -1.33347,0 0,-1.41429 1.33347,0 0,-2.65684 1.80827,-1.09102 0,3.74786 1.82847,0 0,1.41429 -1.82847,0 0,6.27338 c 0,0.51857 0.032,0.85194 0.096,1.0001 0.064,0.14816 0.16836,0.26602 0.31316,0.35357 0.14479,0.0875 0.35189,0.13133 0.62128,0.13133 0.20203,0 0.46806,-0.0236 0.79806,-0.0707 z"
         style=""
         id="path3322" />
      <path
         d="m 279.56728,589.87499 0,-14.80961 1.81837,0 0,14.80961 z"
         style=""
         id="path3324" />
      <path
         d="m 284.21423,589.87499 0,-10.72838 1.63653,0 0,1.52541 c 0.78796,-1.17856 1.92612,-1.76785 3.41449,-1.76786 0.64653,10e-6 1.24086,0.11619 1.78302,0.34852 0.54213,0.23236 0.9479,0.53711 1.21729,0.91424 0.26938,0.37715 0.45795,0.82501 0.56572,1.34357 0.0673,0.33675 0.10101,0.92603 0.10102,1.76786 l 0,6.59664 -1.81837,0 0,-6.52592 c -10e-6,-0.74081 -0.0707,-1.29474 -0.21214,-1.66179 -0.14144,-0.36703 -0.39231,-0.65999 -0.75261,-0.87888 -0.36031,-0.21887 -0.78291,-0.32831 -1.2678,-0.32832 -0.7745,10e-6 -1.44292,0.24583 -2.00526,0.73745 -0.56235,0.49164 -0.84353,1.4244 -0.84352,2.79827 l 0,5.85919 z"
         style=""
         id="path3326" />
      <path
         d="m 299.20568,594.22898 c -1.00348,-1.26613 -1.85205,-2.74776 -2.54572,-4.4449 -0.69368,-1.69715 -1.04052,-3.4549 -1.04051,-5.27328 -10e-6,-1.60285 0.25928,-3.13836 0.77785,-4.60653 0.60612,-1.70387 1.54225,-3.40102 2.80838,-5.09144 l 1.30316,0 c -0.8149,1.40083 -1.35368,2.40093 -1.61633,3.00031 -0.41082,0.9294 -0.73409,1.8992 -0.9698,2.90939 -0.28959,1.2594 -0.43439,2.52552 -0.43438,3.79837 -1e-5,3.2394 1.00683,6.47542 3.02051,9.70808 z"
         style=""
         id="path3328" />
      <path
         d="m 302.73129,580.30835 -0.5051,-2.81848 0,-2.42449 2.07092,0 0,2.42449 -0.45459,2.81848 z m 3.34378,0 -0.495,-2.81848 0,-2.42449 2.07092,0 0,2.42449 -0.4849,2.81848 z"
         style=""
         id="path3330" />
      <path
         d="m 310.00477,577.15651 0,-2.09113 1.81837,0 0,2.09113 z m 0,12.71848 0,-10.72838 1.81837,0 0,10.72838 z"
         style=""
         id="path3332" />
      <path
         d="m 329.90581,581.16702 -9.77879,0 0,-1.69714 9.77879,0 z m 0,4.49542 -9.77879,0 0,-1.69715 9.77879,0 z"
         style=""
         id="path3334" />
      <path
         d="m 338.25012,580.30835 -0.5051,-2.81848 0,-2.42449 2.07092,0 0,2.42449 -0.45459,2.81848 z m 3.34378,0 -0.495,-2.81848 0,-2.42449 2.07092,0 0,2.42449 -0.4849,2.81848 z"
         style=""
         id="path3336" />
      <path
         d="m 355.07003,587.48081 0,-4.06103 -4.03072,0 0,-1.69714 4.03072,0 0,-4.03072 1.71735,0 0,4.03072 4.03072,0 0,1.69714 -4.03072,0 0,4.06103 z"
         style=""
         id="path3338" />
      <path
         d="m 369.08158,577.15651 0,-2.09113 1.81837,0 0,2.09113 z m 0,12.71848 0,-10.72838 1.81837,0 0,10.72838 z"
         style=""
         id="path3340" />
      <path
         d="m 374.87006,594.22898 -1.30317,0 c 2.01368,-3.23266 3.02051,-6.46868 3.02052,-9.70808 -10e-6,-1.26611 -0.1448,-2.52213 -0.43439,-3.76806 -0.22898,-1.0102 -0.54888,-1.97999 -0.95969,-2.90939 -0.26266,-0.60611 -0.8048,-1.61632 -1.62644,-3.03062 l 1.30317,0 c 1.26612,1.69042 2.20224,3.38757 2.80837,5.09144 0.51857,1.46817 0.77785,3.00368 0.77786,4.60653 -1e-5,1.81838 -0.34853,3.57613 -1.04556,5.27328 -0.69705,1.69714 -1.54394,3.17877 -2.54067,4.4449 z"
         style=""
         id="path3342" />
      <path
         d="m 381.06263,581.21753 0,-2.07092 2.07093,0 0,2.07092 z m 0,8.65746 0,-2.07092 2.07093,0 0,2.07092 c -10e-6,0.76102 -0.1347,1.37557 -0.40409,1.84363 -0.26939,0.46806 -0.69704,0.83005 -1.28296,1.08597 l -0.5051,-0.77786 c 0.38388,-0.16837 0.66673,-0.41587 0.84857,-0.7425 0.18184,-0.32663 0.28286,-0.79638 0.30306,-1.40924 z"
         style=""
         id="path3344" />
      <path
         d="m 112.0651,609.5538 0,1.64663 c -0.51858,0.0135 -0.94118,0.1549 -1.26781,0.42429 -0.32664,0.26939 -0.54383,0.63475 -0.65158,1.09607 -0.10776,0.46133 -0.16501,1.25434 -0.17174,2.37904 -0.007,1.12469 -0.0269,1.86551 -0.0606,2.22245 -0.0606,0.57244 -0.17342,1.02872 -0.33842,1.36883 -0.165,0.3401 -0.36873,0.61285 -0.61117,0.81826 -0.24246,0.20541 -0.55225,0.36199 -0.92939,0.46975 -0.25592,0.0741 -0.67347,0.11112 -1.25266,0.11112 l -0.56571,0 0,-1.58602 0.31316,0 c 0.70041,0 1.1651,-0.12628 1.39408,-0.37883 0.22898,-0.25255 0.34347,-0.81995 0.34347,-1.7022 0,-1.68367 0.0303,-2.75112 0.0909,-3.20235 0.10776,-0.74755 0.32327,-1.34525 0.64653,-1.79311 0.32327,-0.44785 0.78123,-0.79638 1.37388,-1.04556 -0.77449,-0.37041 -1.32,-0.86036 -1.63653,-1.46985 -0.31653,-0.60949 -0.4748,-1.63821 -0.4748,-3.08618 0,-1.31326 -0.0168,-2.09785 -0.0505,-2.35378 -0.0471,-0.45121 -0.18015,-0.76606 -0.39903,-0.94454 -0.21888,-0.17846 -0.64821,-0.26769 -1.28801,-0.26771 l -0.31316,0 0,-1.58602 0.56571,0 c 0.66,2e-5 1.13817,0.0539 1.43449,0.16163 0.43102,0.14818 0.78796,0.39737 1.07082,0.74756 0.28286,0.35021 0.46638,0.79134 0.55056,1.32336 0.0842,0.53206 0.12964,1.4042 0.13638,2.61644 0.007,1.21225 0.064,2.04904 0.17174,2.51036 0.10775,0.46133 0.32494,0.82669 0.65158,1.09607 0.32663,0.2694 0.74923,0.41082 1.26781,0.42429 z"
         style=""
         id="path3346" />
    </g>
    <text
       xml:space="preserve"
       style="font-size:14px;font-style:normal;font-weight:normal;line-height:125%;letter-spacing:0px;word-spacing:0px;fill:#000000;fill-opacity:1;stroke:none;font-family:Arial;-inkscape-font-specification:Arial;font-stretch:normal;font-variant:normal;text-anchor:start;text-align:start;writing-mode:lr"
       x="66.741211"
       y="476.14395"
       id="text3281"
       sodipodi:linespacing="125%"><tspan
         sodipodi:role="line"
         id="tspan3283"
         x="66.741211"
         y="476.14395"
         style="font-style:normal;-inkscape-font-specification:Arial;font-family:Arial;font-weight:normal;font-stretch:normal;font-variant:normal;font-size:14px;text-anchor:start;text-align:start;writing-mode:lr;line-height:125%">Initialization</tspan><tspan
         sodipodi:role="line"
         x="66.741211"
         y="493.60187"
         id="tspan3463">Code executed</tspan><tspan
         sodipodi:role="line"
         x="66.741211"
         y="511.10187"
         id="tspan3627">before the loop.</tspan></text>
    <text
       xml:space="preserve"
       style="font-size:14px;font-style:normal;font-weight:normal;line-height:125%;letter-spacing:0px;word-spacing:0px;fill:#000000;fill-opacity:1;stroke:none;font-family:Arial;-inkscape-font-specification:Arial;font-stretch:normal;font-variant:normal;text-anchor:start;text-align:start;writing-mode:lr"
       x="181.74121"
       y="476.31485"
       id="text3285"
       sodipodi:linespacing="125%"><tspan
         sodipodi:role="line"
         id="tspan3287"
         x="181.74121"
         y="476.31485"
         style="font-style:normal;-inkscape-font-specification:Arial;font-family:Arial;font-weight:normal;font-stretch:normal;font-variant:normal;font-size:14px;text-anchor:start;text-align:start;writing-mode:lr;line-height:125%">Condition</tspan><tspan
         sodipodi:role="line"
         x="181.74121"
         y="493.77277"
         id="tspan3621">Condition that must be</tspan><tspan
         sodipodi:role="line"
         x="181.74121"
         y="511.27277"
         id="tspan3625">true before each iteration.</tspan></text>
    <text
       xml:space="preserve"
       style="font-size:14px;font-style:normal;font-weight:normal;line-height:125%;letter-spacing:0px;word-spacing:0px;fill:#000000;fill-opacity:1;stroke:none;font-family:Arial;-inkscape-font-specification:Arial;font-stretch:normal;font-variant:normal;text-anchor:start;text-align:start;writing-mode:lr"
       x="359.74121"
       y="476.14395"
       id="text3289"
       sodipodi:linespacing="125%"><tspan
         sodipodi:role="line"
         id="tspan3291"
         x="359.74121"
         y="476.14395"
         style="font-style:normal;-inkscape-font-specification:Arial;font-family:Arial;font-weight:normal;font-stretch:normal;font-variant:normal;font-size:14px;text-anchor:start;text-align:start;writing-mode:lr;line-height:125%">Increment</tspan><tspan
         sodipodi:role="line"
         x="359.74121"
         y="493.60187"
         id="tspan3467">Code executed after</tspan><tspan
         sodipodi:role="line"
         x="359.74121"
         y="511.10187"
         id="tspan3619">each iteration.</tspan></text>
    <text
       xml:space="preserve"
       style="font-size:14px;font-style:normal;font-weight:normal;line-height:125%;letter-spacing:0px;word-spacing:0px;fill:#000000;fill-opacity:1;stroke:none;font-family:Arial;-inkscape-font-specification:Arial;font-stretch:normal;font-variant:normal;text-anchor:start;text-align:start;writing-mode:lr"
       x="435.74121"
       y="573.14398"
       id="text3293"
       sodipodi:linespacing="125%"><tspan
         sodipodi:role="line"
         id="tspan3295"
         x="435.74121"
         y="573.14398"
         style="font-style:normal;-inkscape-font-specification:Arial;font-family:Arial;font-weight:normal;font-stretch:normal;font-variant:normal;font-size:14px;text-anchor:start;text-align:start;writing-mode:lr;line-height:125%">Body</tspan><tspan
         sodipodi:role="line"
         x="435.74121"
         y="590.60193"
         id="tspan3471">Code executed during</tspan><tspan
         sodipodi:role="line"
         x="435.74121"
         y="608.10193"
         id="tspan3297">each iteration.</tspan></text>
    <text
       xml:space="preserve"
       style="font-size:14px;font-style:normal;font-weight:normal;line-height:125%;letter-spacing:0px;word-spacing:0px;fill:#000000;fill-opacity:1;stroke:none;font-family:Arial;-inkscape-font-specification:Arial;font-stretch:normal;font-variant:normal;text-anchor:start;text-align:start;writing-mode:lr"
       x="496.74121"
       y="432.14395"
       id="text3299"
       sodipodi:linespacing="125%"><tspan
         sodipodi:role="line"
         x="496.74121"
         y="432.14395"
         id="tspan3307"><tspan
   style="font-style:normal;-inkscape-font-specification:Arial;font-family:Arial;font-weight:normal;font-stretch:normal;font-variant:normal;font-size:14px;text-anchor:start;text-align:start;writing-mode:lr;line-height:125%"
   id="tspan3103">Iteration:</tspan> One cycle in a loop.</tspan><tspan
         sodipodi:role="line"
         x="496.74121"
         y="449.65265"
         id="tspan3311">   A loop may have 10, 100, or</tspan><tspan
         sodipodi:role="line"
         x="496.74121"
         y="467.15265"
         id="tspan3313">   100000 or more iterations</tspan><tspan
         sodipodi:role="line"
         x="496.74121"
         y="484.65265"
         id="tspan3315">   before it is finished.</tspan></text>
    <text
       xml:space="preserve"
       style="font-size:14px;font-style:normal;font-variant:normal;font-weight:normal;font-stretch:normal;text-align:start;line-height:125%;letter-spacing:0px;word-spacing:0px;writing-mode:lr-tb;text-anchor:start;fill:#000000;fill-opacity:1;stroke:none;font-family:Arial;-inkscape-font-specification:Arial"
       x="594.74121"
       y="513.14398"
       id="text3323"
       sodipodi:linespacing="125%"><tspan
         sodipodi:role="line"
         id="tspan3325"
         x="594.74121"
         y="513.14398"
         style="font-size:14px;font-style:normal;font-variant:normal;font-weight:normal;font-stretch:normal;text-align:start;line-height:125%;writing-mode:lr-tb;text-anchor:start;font-family:Arial;-inkscape-font-specification:Arial">Output:</tspan><tspan
         sodipodi:role="line"
         x="594.74121"
         y="532.3158"
         id="tspan3341"
         style="font-size:14px;font-style:normal;font-variant:normal;font-weight:normal;font-stretch:normal;text-align:start;line-height:125%;writing-mode:lr-tb;text-anchor:start;font-family:Monospace;-inkscape-font-specification:Monospace">i = -3</tspan><tspan
         sodipodi:role="line"
         x="594.74121"
         y="549.8158"
         id="tspan3343"
         style="font-size:14px;font-style:normal;font-variant:normal;font-weight:normal;font-stretch:normal;text-align:start;line-height:125%;writing-mode:lr-tb;text-anchor:start;font-family:Monospace;-inkscape-font-specification:Monospace">i = -2</tspan><tspan
         sodipodi:role="line"
         x="594.74121"
         y="567.3158"
         id="tspan3345"
         style="font-size:14px;font-style:normal;font-variant:normal;font-weight:normal;font-stretch:normal;text-align:start;line-height:125%;writing-mode:lr-tb;text-anchor:start;font-family:Monospace;-inkscape-font-specification:Monospace">i = -1</tspan><tspan
         sodipodi:role="line"
         x="594.74121"
         y="584.8158"
         id="tspan3347"
         style="font-size:14px;font-style:normal;font-variant:normal;font-weight:normal;font-stretch:normal;text-align:start;line-height:125%;writing-mode:lr-tb;text-anchor:start;font-family:Monospace;-inkscape-font-specification:Monospace">i = 0</tspan><tspan
         sodipodi:role="line"
         x="594.74121"
         y="602.3158"
         id="tspan3349"
         style="font-size:14px;font-style:normal;font-variant:normal;font-weight:normal;font-stretch:normal;text-align:start;line-height:125%;writing-mode:lr-tb;text-anchor:start;font-family:Monospace;-inkscape-font-specification:Monospace">i = 1</tspan><tspan
         sodipodi:role="line"
         x="594.74121"
         y="619.8158"
         id="tspan3351"
         style="font-size:14px;font-style:normal;font-variant:normal;font-weight:normal;font-stretch:normal;text-align:start;line-height:125%;writing-mode:lr-tb;text-anchor:start;font-family:Monospace;-inkscape-font-specification:Monospace">i = 2</tspan><tspan
         sodipodi:role="line"
         x="594.74121"
         y="637.3158"
         id="tspan3369"
         style="font-size:14px;font-style:normal;font-variant:normal;font-weight:normal;font-stretch:normal;text-align:start;line-height:125%;writing-mode:lr-tb;text-anchor:start;font-family:Monospace;-inkscape-font-specification:Monospace">i = 3</tspan></text>
    <path
       style="fill:none;stroke:#000000;stroke-width:1px;stroke-linecap:butt;stroke-linejoin:miter;stroke-opacity:1"
       d="m 220.74121,544.14397 60,0 56,-28.00001 -159,0 z"
       id="path3443"
       inkscape:connector-curvature="0"
       sodipodi:nodetypes="ccccc" />
    <path
       style="fill:none;stroke:#000000;stroke-width:1px;stroke-linecap:butt;stroke-linejoin:miter;stroke-opacity:1"
       d="m 290.74121,544.14397 30,0 156,-28.00001 -124,0 z"
       id="path3445"
       inkscape:connector-curvature="0"
       sodipodi:nodetypes="ccccc" />
    <path
       style="fill:none;stroke:#000000;stroke-width:1px;stroke-linecap:butt;stroke-linejoin:miter;stroke-opacity:1"
       d="m 141.74121,545.14397 72,0 -47,-29.00001 -103.999999,0 z"
       id="path3447"
       inkscape:connector-curvature="0"
       sodipodi:nodetypes="ccccc" />
    <path
       style="fill:none;stroke:#000000;stroke-width:1px;stroke-linecap:butt;stroke-linejoin:miter;stroke-opacity:1"
       d="m 430.74121,563.14397 0,45 -42,-13 0,-22 z"
       id="path3473"
       inkscape:connector-curvature="0" />
    <path
       style="opacity:0.45673079999999999;fill:#80fff2;fill-opacity:1;stroke:none"
       d="M 49.48775,119.07707 13.838,105.91745 l 48.060999,-0.25971 48.061001,-0.2597 21.33875,13.1418 c 11.73631,7.22798 21.33875,13.30735 21.33875,13.5097 0,0.20235 -15.1875,0.32723 -33.75,0.27753 l -33.75,-0.0904 -35.64975,-13.15962 z"
       id="path4116"
       inkscape:connector-curvature="0"
       transform="translate(56.5625,411.94473)" />
    <path
       style="opacity:0.45673079999999999;fill:#fcff80;fill-opacity:1;stroke:none"
       d="m 145.59296,118.80566 c -10.7005,-6.93647 -19.64296,-12.78647 -19.87213,-13 -0.22916,-0.21352 33.29584,-0.364 74.5,-0.33441 l 74.91667,0.0538 -25.5,12.8924 -25.5,12.89239 -29.54454,0.0538 -29.54455,0.0538 -19.45545,-12.61179 z"
       id="path4118"
       inkscape:connector-curvature="0"
       transform="translate(56.5625,411.94473)" />
    <path
       style="opacity:0.45673079999999999;fill:#ff8089;fill-opacity:1;stroke:none"
       d="m 239.72083,131.03568 c 0.22917,-0.20998 13.02337,-6.06391 28.43156,-13.00873 l 28.0149,-12.62696 54.36505,0.25873 54.36505,0.25873 -71.37995,12.77286 c -64.33857,11.51286 -72.50615,12.7706 -82.79661,12.75 -6.27916,-0.0126 -11.22916,-0.19466 -11,-0.40463 z"
       id="path4120"
       inkscape:connector-curvature="0"
       transform="translate(56.5625,411.94473)" />
    <path
       style="opacity:0.45673079999999999;fill:#99ff80;fill-opacity:1;stroke:none"
       d="m 352.6375,188.51144 -18.5,-5.78679 -0.28167,-10.44011 -0.28166,-10.44011 18.78166,-4.37041 c 10.32992,-2.40372 19.34417,-4.57294 20.03167,-4.82048 0.97473,-0.35096 1.25,4.19795 1.25,20.65692 0,16.25071 -0.2876,21.09327 -1.25,21.04737 -0.6875,-0.0328 -9.575,-2.66366 -19.75,-5.84639 z"
       id="path4122"
       inkscape:connector-curvature="0"
       transform="translate(56.5625,411.94473)" />
  </g>
</svg>
