<?xml version="1.0" encoding="UTF-8" standalone="no"?>
<!-- Created with Inkscape (http://www.inkscape.org/) -->

<svg
   xmlns:dc="http://purl.org/dc/elements/1.1/"
   xmlns:cc="http://creativecommons.org/ns#"
   xmlns:rdf="http://www.w3.org/1999/02/22-rdf-syntax-ns#"
   xmlns:svg="http://www.w3.org/2000/svg"
   xmlns="http://www.w3.org/2000/svg"
   xmlns:sodipodi="http://sodipodi.sourceforge.net/DTD/sodipodi-0.dtd"
   xmlns:inkscape="http://www.inkscape.org/namespaces/inkscape"
   width="406.34247"
   height="203.26907"
   id="svg2"
   version="1.1"
   inkscape:version="0.48.1 "
   sodipodi:docname="strings_sequence.svg">
  <defs
     id="defs4" />
  <sodipodi:namedview
     id="base"
     pagecolor="#ffffff"
     bordercolor="#666666"
     borderopacity="1.0"
     inkscape:pageopacity="0.0"
     inkscape:pageshadow="2"
     inkscape:zoom="0.98994949"
     inkscape:cx="-33.958205"
     inkscape:cy="91.278354"
     inkscape:document-units="px"
     inkscape:current-layer="layer1"
     showgrid="false"
     inkscape:window-width="1920"
     inkscape:window-height="1005"
     inkscape:window-x="-9"
     inkscape:window-y="-9"
     inkscape:window-maximized="1"
     fit-margin-top="0"
     fit-margin-left="0"
     fit-margin-right="0"
     fit-margin-bottom="0" />
  <metadata
     id="metadata7">
    <rdf:RDF>
      <cc:Work
         rdf:about="">
        <dc:format>image/svg+xml</dc:format>
        <dc:type
           rdf:resource="http://purl.org/dc/dcmitype/StillImage" />
        <dc:title></dc:title>
      </cc:Work>
    </rdf:RDF>
  </metadata>
  <g
     inkscape:label="Layer 1"
     inkscape:groupmode="layer"
     id="layer1"
     transform="translate(-120.02102,-170.48108)">
    <g
       id="g3909">
      <rect
         y="224.02695"
         x="124.24876"
         height="55.558392"
         width="55.558392"
         id="rect2985"
         style="fill:#b9d8c2;fill-opacity:1;stroke:#366143;stroke-opacity:1" />
      <rect
         style="fill:#b9d8c2;fill-opacity:1;stroke:#366143;stroke-opacity:1"
         id="rect3755"
         width="55.558392"
         height="55.558392"
         x="188.6965"
         y="224.02695" />
      <rect
         y="224.02695"
         x="253.14423"
         height="55.558392"
         width="55.558392"
         id="rect3757"
         style="fill:#b9d8c2;fill-opacity:1;stroke:#366143;stroke-opacity:1" />
      <rect
         style="fill:#b9d8c2;fill-opacity:1;stroke:#366143;stroke-opacity:1"
         id="rect3759"
         width="55.558392"
         height="55.558392"
         x="317.59198"
         y="224.02695" />
      <rect
         y="224.02695"
         x="382.0397"
         height="55.558392"
         width="55.558392"
         id="rect3761"
         style="fill:#b9d8c2;fill-opacity:1;stroke:#366143;stroke-opacity:1" />
      <rect
         style="fill:#b9d8c2;fill-opacity:1;stroke:#366143;stroke-opacity:1"
         id="rect3763"
         width="55.558392"
         height="55.558392"
         x="446.48743"
         y="224.02695" />
      <text
         sodipodi:linespacing="125%"
         id="text3765"
         y="267.99307"
         x="151.25494"
         style="font-size:46.95005035px;font-style:normal;font-variant:normal;font-weight:normal;font-stretch:normal;text-align:center;line-height:125%;letter-spacing:0px;word-spacing:0px;writing-mode:lr-tb;text-anchor:middle;fill:#000000;fill-opacity:1;stroke:none;font-family:Arial;-inkscape-font-specification:Arial"
         xml:space="preserve"><tspan
           y="267.99307"
           x="151.25494"
           id="tspan3767"
           sodipodi:role="line">W</tspan></text>
      <path
         inkscape:connector-curvature="0"
         id="path3789"
         d="m 131.36058,307.72135 c 10.37047,11.10595 25.2965,15.40533 40.0681,16.07735 19.54338,2.90355 39.71117,-0.0679 57.38558,-8.92246 22.74391,-8.54244 47.29982,-11.09748 71.42993,-9.91256 12.21057,2.4516 27.1345,7.08506 30.64351,20.73521 7.02307,-2.98884 -17.29724,14.4058 -8.9432,3.11235 7.71264,-13.93042 25.22855,-21.47281 40.55711,-23.3027 14.4141,-0.52974 26.02616,8.90266 38.60761,14.28114 12.73273,3.76778 24.78317,10.30898 38.44083,9.73816 12.98618,1.36956 25.40642,-4.43648 37.02822,-9.54116 13.1587,-6.96107 0.0446,0.44599 -5.91117,3.61882 9.60624,-5.77882 16.49635,-15.61454 27.62605,-18.63947 12.32348,-5.94883 -7.26116,7.95284 -10.56539,10.87248 -14.89739,10.87082 -32.12943,18.92424 -50.21707,22.50788 -13.22486,0.31324 -26.63914,-1.10813 -38.62857,-7.05357 -12.77122,-2.42333 -22.6913,-11.46044 -35.01694,-14.86108 -10.12296,-5.40181 -25.78602,0.0708 -32.1949,4.0475 4.67378,-2.3622 18.6414,-11.53511 7.29872,-3.25378 -3.27957,7.83518 -17.39918,28.56549 -22.56174,11.76875 -6.47813,-11.74606 -21.5208,-15.1045 -33.93917,-15.81269 -25.42843,-0.18741 -51.06516,3.74675 -74.22968,14.62916 -22.92265,8.78309 -48.61805,6.41869 -71.84787,0.13555 -5.01143,-3.50502 -24.53387,-11.18087 -12.52957,-15.62908 2.49986,-1.53194 4.99979,-3.06384 7.49961,-4.5958 z"
         style="fill:#272727;fill-opacity:1;stroke:none" />
      <path
         inkscape:connector-curvature="0"
         d="m 439.15196,212.93873 c 2.78191,-4.11306 5.53247,-5.86957 9.68601,-9.02928 1.60358,-0.9481 3.43927,-1.25802 5.25229,-1.53426 1.69329,-0.4193 3.2746,-0.12924 4.92401,0.27597 1.46777,0.75246 2.85221,1.47243 4.49679,1.73894 1.64403,0.0993 3.36639,0.13667 4.95286,-0.35029 2.28251,-0.88716 7.3608,-5.03307 -1.49319,1.51226 0.58329,-1.0573 1.31736,-2.01788 1.87662,-3.0889 4.77225,-8.29962 5.3473,-3.65243 6.37578,-0.97171 0.61332,1.48468 1.90164,2.3175 3.25115,3.06549 1.49654,0.70082 3.05063,1.01678 4.69021,1.09467 1.75375,0.0174 3.49764,-0.20451 5.23515,-0.41604 1.76151,-0.22237 3.52192,-0.45336 5.28286,-0.68014 1.5934,-0.27424 3.23384,-0.30119 4.80208,0.11844 1.28241,0.33001 2.44969,1.04307 3.48215,1.85924 1.06036,0.97822 1.81109,2.06263 2.3258,3.4071 0.30461,1.03185 0.16573,0.50768 0.41516,1.57288 0,0 -5.04615,3.50295 -5.04615,3.50295 l 0,0 c -0.22554,-1.02164 -0.10054,-0.52088 -0.37285,-1.50284 -0.45172,-1.24978 -1.1325,-2.23718 -2.12568,-3.12851 -0.99327,-0.74445 -2.08154,-1.39706 -3.30841,-1.65952 -1.5449,-0.29345 -3.09787,-0.24592 -4.64424,0.0328 -1.76207,0.22682 -3.52341,0.4597 -5.28689,0.67551 -1.76268,0.20523 -3.53521,0.41452 -5.31318,0.33417 -1.70409,-0.14227 -3.34162,-0.52485 -4.87831,-1.3016 -1.44323,-0.8548 -2.81505,-1.79908 -3.51293,-3.39137 -0.0925,-0.23544 -0.76386,-2.17429 -0.73729,-2.19687 3.51927,-2.99135 6.81487,-4.62173 4.67646,-3.55223 -0.63039,1.06162 -1.31302,2.08031 -1.82574,3.19999 -2.39527,1.93359 -5.10875,4.80543 -8.29824,5.77318 -1.68393,0.32441 -3.42719,0.38332 -5.12852,0.15457 -1.62162,-0.34327 -3.01725,-1.09816 -4.51825,-1.76109 -1.59611,-0.37382 -3.13823,-0.48498 -4.75595,-0.10014 -1.76981,0.3037 -3.54313,0.67793 -5.04077,1.7318 8.8268,-6.81846 4.22402,-3.39653 3.13866,-2.33552 -1.20278,1.17579 -2.20637,2.56396 -3.27092,3.85847 0,0 -5.30656,3.09165 -5.30656,3.09165 z"
         id="path3791"
         style="fill:#272727;fill-opacity:1;stroke:none" />
      <text
         sodipodi:linespacing="125%"
         id="text3793"
         y="368.48892"
         x="136.37061"
         style="font-size:25px;font-style:normal;font-variant:normal;font-weight:normal;font-stretch:normal;text-align:start;line-height:125%;letter-spacing:0px;word-spacing:0px;writing-mode:lr-tb;text-anchor:start;fill:#000000;fill-opacity:1;stroke:none;font-family:Arial;-inkscape-font-specification:Arial"
         xml:space="preserve"><tspan
           y="368.48892"
           x="136.37061"
           id="tspan3795"
           sodipodi:role="line">String (sequence of characters)</tspan></text>
      <text
         sodipodi:linespacing="125%"
         id="text3797"
         y="188.68176"
         x="416.18283"
         style="font-size:25px;font-style:normal;font-variant:normal;font-weight:normal;font-stretch:normal;text-align:start;line-height:125%;letter-spacing:0px;word-spacing:0px;writing-mode:lr-tb;text-anchor:start;fill:#000000;fill-opacity:1;stroke:none;font-family:Arial;-inkscape-font-specification:Arial"
         xml:space="preserve"><tspan
           y="188.68176"
           x="416.18283"
           id="tspan3799"
           sodipodi:role="line">Character</tspan></text>
      <text
         xml:space="preserve"
         style="font-size:46.95005035px;font-style:normal;font-variant:normal;font-weight:normal;font-stretch:normal;text-align:center;line-height:125%;letter-spacing:0px;word-spacing:0px;writing-mode:lr-tb;text-anchor:middle;fill:#000000;fill-opacity:1;stroke:none;font-family:Arial;-inkscape-font-specification:Arial"
         x="215.90471"
         y="267.99307"
         id="text3801"
         sodipodi:linespacing="125%"><tspan
           sodipodi:role="line"
           id="tspan3803"
           x="215.90471"
           y="267.99307">o</tspan></text>
      <text
         sodipodi:linespacing="125%"
         id="text3805"
         y="267.99307"
         x="280.55447"
         style="font-size:46.95005035px;font-style:normal;font-variant:normal;font-weight:normal;font-stretch:normal;text-align:center;line-height:125%;letter-spacing:0px;word-spacing:0px;writing-mode:lr-tb;text-anchor:middle;fill:#000000;fill-opacity:1;stroke:none;font-family:Arial;-inkscape-font-specification:Arial"
         xml:space="preserve"><tspan
           y="267.99307"
           x="280.55447"
           id="tspan3807"
           sodipodi:role="line">3</tspan></text>
      <text
         xml:space="preserve"
         style="font-size:46.95005035px;font-style:normal;font-variant:normal;font-weight:normal;font-stretch:normal;text-align:center;line-height:125%;letter-spacing:0px;word-spacing:0px;writing-mode:lr-tb;text-anchor:middle;fill:#000000;fill-opacity:1;stroke:none;font-family:Arial;-inkscape-font-specification:Arial"
         x="345.20422"
         y="267.99307"
         id="text3809"
         sodipodi:linespacing="125%"><tspan
           sodipodi:role="line"
           id="tspan3811"
           x="345.20422"
           y="267.99307">7</tspan></text>
      <text
         sodipodi:linespacing="125%"
         id="text3813"
         y="267.99307"
         x="410.86414"
         style="font-size:46.95005035px;font-style:normal;font-variant:normal;font-weight:normal;font-stretch:normal;text-align:center;line-height:125%;letter-spacing:0px;word-spacing:0px;writing-mode:lr-tb;text-anchor:middle;fill:#000000;fill-opacity:1;stroke:none;font-family:Arial;-inkscape-font-specification:Arial"
         xml:space="preserve"><tspan
           y="267.99307"
           x="410.86414"
           id="tspan3815"
           sodipodi:role="line">#</tspan></text>
      <text
         xml:space="preserve"
         style="font-size:46.95005035px;font-style:normal;font-variant:normal;font-weight:normal;font-stretch:normal;text-align:center;line-height:125%;letter-spacing:0px;word-spacing:0px;writing-mode:lr-tb;text-anchor:middle;fill:#000000;fill-opacity:1;stroke:none;font-family:Arial;-inkscape-font-specification:Arial"
         x="474.50375"
         y="267.99307"
         id="text3817"
         sodipodi:linespacing="125%"><tspan
           sodipodi:role="line"
           id="tspan3819"
           x="474.50375"
           y="267.99307">=</tspan></text>
      <path
         inkscape:connector-curvature="0"
         id="path3821"
         d="m 439.15196,212.93873 c 2.58363,-3.92922 6.46758,-6.75884 10.29774,-9.35608 2.23411,-0.92354 4.70268,-1.42347 7.11902,-1.37867 2.83355,0.003 5.01371,2.35931 7.87396,2.2324 2.29786,0.19723 4.63092,-0.32206 6.46967,-1.75727 2.49066,-1.74085 -2.40771,1.68681 -3.15187,2.29023 -1.73852,1.39538 0.83341,-1.70189 1.08687,-2.50617 1.21994,-1.59727 2.45072,-5.32781 4.89682,-4.3705 1.30148,1.72796 1.20263,4.36963 3.27009,5.5571 3.45039,2.64542 8.03096,2.07185 12.0459,1.50204 3.72166,-0.30645 7.76072,-1.74134 11.25923,0.26938 2.26122,1.1582 4.22329,3.70268 4.27692,6.16923 -1.64492,1.14187 -3.28985,2.28375 -4.93477,3.42563 -0.44371,-3.91053 -4.27951,-6.77897 -8.12851,-6.48903 -4.62534,0.27117 -9.22081,1.58916 -13.87404,1.13425 -3.45224,-0.43515 -7.23161,-2.45978 -7.98001,-6.1405 0.16592,-1.98102 3.31919,-2.97734 4.86724,-4.32996 -0.20234,-0.32402 -1.84942,2.61514 -2.43923,3.51871 -3.04135,2.48444 -6.05862,5.89021 -10.3085,5.86072 -2.63664,0.3179 -5.10689,-0.7342 -7.41102,-1.878 -2.97958,-0.76171 -6.15677,-0.0744 -8.92706,1.10652 -1.91675,1.17255 1.84431,-1.50142 2.57753,-2.14708 0.75754,-0.57478 2.73712,-2.16985 0.90021,-0.70483 -1.90319,1.34835 -3.09664,3.4381 -4.71396,5.0365 -1.69067,0.98517 -3.38195,1.97003 -5.07223,2.95538 z"
         style="fill:#272727;fill-opacity:1;stroke:none" />
    </g>
  </g>
</svg>
