{"messages":[
{"message":"What happens when you draw two circles? Click Run Your Code to try this.","time":6947,"done":true},
{"message":"Because the rocket ends in the same place as it started, drawing another circle traces the same path as before. What if you turned left, moved, or turned right, in between each circle? Would the path of the next circle change? Let's find out.","time":6947,"done":true},
{"message":"Any commands will do... let's choose turnLeft and moveForward.","time":17068,"delay":8000},
{"message":"Click Run Your Code to see the result.","time":29862,"done":true},
{"message":"This seems like it might make an interesting pattern.","time":32829,"delay":10000},
{"message":"We seem to be doing the same thing more than once. Could we simplify this code?","time":55097,"delay":12000},
{"message":"Methods can be used to simplify code that appears more than once.","time":66870,"delay":10000},
{"message":"How do you start a method?","time":84920,"delay":7000},
{"message":"What would you name this method? It is going to draw a pattern, so one idea is to call it \"pattern\".","time":99667,"delay":10000},
{"message":"So far, we have written the header of the method. The header is like the title of a chapter in a book.","time":114754,"delay":12000},
{"message":"Now, there is space for the body of the method, which is like the pages of a chapter.","time":123335,"delay":10000},
{"message":"Let's transfer the pattern we wrote in the main method to this method.","time":127200,"delay":9},
{"message":"The pattern method is done, so we can now call it from the main method. Remember how the pattern repeated? We can call pattern(); more than once to repeat the pattern.","time":151969,"delay":13},
{"message":"Before we see the pattern, the circle() method also has some repeated code. Let's put this into a method to simplify the program.","time":175928,"delay":12},
{"message":"Some of the other methods in the program do not have comments. Let's clarify the main method, and pattern method, so that they are easier to understand.","time":278129,"delay":15},
{"message":"Click Run Your Code to see what happens.","time":379049,"done":true},
{"message":"This ends the \"methods\" part of the tutorial. You can now experiment with patterns of your own. Try writing a new pattern with different geometric shapes. Or, free draw pictures! It's all up to you.\n\nClick Continue when you are ready to move to the next part of the tutorial. You can return to this template at any time by clicking \"RocketDrawer\" on the home page.","time":379049,"done":true}],"deltas":[{"time":2795,"data":{"action":"insertText","range":{"start":{"row":2,"column":17},"end":{"row":3,"column":0}},"text":"\n"}},{"time":2796,"data":{"action":"insertText","range":{"start":{"row":3,"column":0},"end":{"row":3,"column":8}},"text":"        "}},{"time":3194,"data":{"action":"insertText","range":{"start":{"row":3,"column":8},"end":{"row":3,"column":9}},"text":"c"}},{"time":3325,"data":{"action":"insertText","range":{"start":{"row":3,"column":9},"end":{"row":3,"column":10}},"text":"i"}},{"time":3543,"data":{"action":"insertText","range":{"start":{"row":3,"column":10},"end":{"row":3,"column":11}},"text":"r"}},{"time":3804,"data":{"action":"insertText","range":{"start":{"row":3,"column":11},"end":{"row":3,"column":12}},"text":"c"}},{"time":3963,"data":{"action":"insertText","range":{"start":{"row":3,"column":12},"end":{"row":3,"column":13}},"text":"l"}},{"time":4183,"data":{"action":"insertText","range":{"start":{"row":3,"column":13},"end":{"row":3,"column":14}},"text":"e"}},{"time":4535,"data":{"action":"insertText","range":{"start":{"row":3,"column":14},"end":{"row":3,"column":16}},"text":"()"}},{"time":5030,"data":{"action":"insertText","range":{"start":{"row":3,"column":16},"end":{"row":3,"column":17}},"text":";"}},{"time":8807,"data":{"action":"insertText","range":{"start":{"row":2,"column":17},"end":{"row":3,"column":0}},"text":"\n"}},{"time":8808,"data":{"action":"insertText","range":{"start":{"row":3,"column":0},"end":{"row":3,"column":8}},"text":"        "}},{"time":10095,"data":{"action":"insertText","range":{"start":{"row":3,"column":8},"end":{"row":3,"column":9}},"text":"t"}},{"time":10434,"data":{"action":"insertText","range":{"start":{"row":3,"column":9},"end":{"row":3,"column":10}},"text":"u"}},{"time":10921,"data":{"action":"insertText","range":{"start":{"row":3,"column":10},"end":{"row":3,"column":11}},"text":"r"}},{"time":11213,"data":{"action":"insertText","range":{"start":{"row":3,"column":11},"end":{"row":3,"column":12}},"text":"n"}},{"time":11573,"data":{"action":"insertText","range":{"start":{"row":3,"column":12},"end":{"row":3,"column":13}},"text":"L"}},{"time":11849,"data":{"action":"insertText","range":{"start":{"row":3,"column":13},"end":{"row":3,"column":14}},"text":"e"}},{"time":12113,"data":{"action":"insertText","range":{"start":{"row":3,"column":14},"end":{"row":3,"column":15}},"text":"f"}},{"time":12406,"data":{"action":"insertText","range":{"start":{"row":3,"column":15},"end":{"row":3,"column":16}},"text":"t"}},{"time":12739,"data":{"action":"insertText","range":{"start":{"row":3,"column":16},"end":{"row":3,"column":18}},"text":"()"}},{"time":13020,"data":{"action":"insertText","range":{"start":{"row":3,"column":17},"end":{"row":3,"column":18}},"text":"0"}},{"time":13371,"data":{"action":"insertText","range":{"start":{"row":3,"column":18},"end":{"row":3,"column":19}},"text":";"}},{"time":13875,"data":{"action":"removeText","range":{"start":{"row":3,"column":18},"end":{"row":3,"column":19}},"text":";"}},{"time":14033,"data":{"action":"removeText","range":{"start":{"row":3,"column":17},"end":{"row":3,"column":18}},"text":"0"}},{"time":15169,"data":{"action":"insertText","range":{"start":{"row":3,"column":18},"end":{"row":3,"column":19}},"text":";"}},{"time":18720,"data":{"action":"insertText","range":{"start":{"row":3,"column":19},"end":{"row":4,"column":0}},"text":"\n"}},{"time":18720,"data":{"action":"insertText","range":{"start":{"row":4,"column":0},"end":{"row":4,"column":8}},"text":"        "}},{"time":19252,"data":{"action":"insertText","range":{"start":{"row":4,"column":8},"end":{"row":4,"column":9}},"text":"m"}},{"time":19558,"data":{"action":"insertText","range":{"start":{"row":4,"column":9},"end":{"row":4,"column":10}},"text":"o"}},{"time":19878,"data":{"action":"insertText","range":{"start":{"row":4,"column":10},"end":{"row":4,"column":11}},"text":"v"}},{"time":20087,"data":{"action":"insertText","range":{"start":{"row":4,"column":11},"end":{"row":4,"column":12}},"text":"e"}},{"time":20391,"data":{"action":"insertText","range":{"start":{"row":4,"column":12},"end":{"row":4,"column":13}},"text":"F"}},{"time":20634,"data":{"action":"insertText","range":{"start":{"row":4,"column":13},"end":{"row":4,"column":14}},"text":"o"}},{"time":20898,"data":{"action":"insertText","range":{"start":{"row":4,"column":14},"end":{"row":4,"column":15}},"text":"r"}},{"time":21255,"data":{"action":"insertText","range":{"start":{"row":4,"column":15},"end":{"row":4,"column":16}},"text":"w"}},{"time":21569,"data":{"action":"insertText","range":{"start":{"row":4,"column":16},"end":{"row":4,"column":17}},"text":"a"}},{"time":21826,"data":{"action":"insertText","range":{"start":{"row":4,"column":17},"end":{"row":4,"column":18}},"text":"r"}},{"time":22163,"data":{"action":"insertText","range":{"start":{"row":4,"column":18},"end":{"row":4,"column":19}},"text":"d"}},{"time":22524,"data":{"action":"insertText","range":{"start":{"row":4,"column":19},"end":{"row":4,"column":21}},"text":"()"}},{"time":23378,"data":{"action":"insertText","range":{"start":{"row":4,"column":21},"end":{"row":4,"column":22}},"text":";"}},{"time":25035,"data":{"action":"insertText","range":{"start":{"row":4,"column":22},"end":{"row":5,"column":0}},"text":"\n"}},{"time":25035,"data":{"action":"insertText","range":{"start":{"row":5,"column":0},"end":{"row":5,"column":8}},"text":"        "}},{"time":35852,"data":{"action":"insertText","range":{"start":{"row":6,"column":17},"end":{"row":7,"column":0}},"text":"\n"}},{"time":35852,"data":{"action":"insertText","range":{"start":{"row":7,"column":0},"end":{"row":7,"column":8}},"text":"        "}},{"time":36461,"data":{"action":"insertText","range":{"start":{"row":7,"column":8},"end":{"row":7,"column":9}},"text":"t"}},{"time":36707,"data":{"action":"insertText","range":{"start":{"row":7,"column":9},"end":{"row":7,"column":10}},"text":"u"}},{"time":36879,"data":{"action":"insertText","range":{"start":{"row":7,"column":10},"end":{"row":7,"column":11}},"text":"r"}},{"time":37047,"data":{"action":"insertText","range":{"start":{"row":7,"column":11},"end":{"row":7,"column":12}},"text":"n"}},{"time":37249,"data":{"action":"insertText","range":{"start":{"row":7,"column":12},"end":{"row":7,"column":13}},"text":"L"}},{"time":37394,"data":{"action":"insertText","range":{"start":{"row":7,"column":13},"end":{"row":7,"column":14}},"text":"e"}},{"time":37485,"data":{"action":"insertText","range":{"start":{"row":7,"column":14},"end":{"row":7,"column":15}},"text":"f"}},{"time":37685,"data":{"action":"insertText","range":{"start":{"row":7,"column":15},"end":{"row":7,"column":16}},"text":"t"}},{"time":37959,"data":{"action":"insertText","range":{"start":{"row":7,"column":16},"end":{"row":7,"column":18}},"text":"()"}},{"time":38391,"data":{"action":"insertText","range":{"start":{"row":7,"column":18},"end":{"row":7,"column":19}},"text":";"}},{"time":38589,"data":{"action":"insertText","range":{"start":{"row":7,"column":19},"end":{"row":8,"column":0}},"text":"\n"}},{"time":38589,"data":{"action":"insertText","range":{"start":{"row":8,"column":0},"end":{"row":8,"column":8}},"text":"        "}},{"time":39013,"data":{"action":"insertText","range":{"start":{"row":8,"column":8},"end":{"row":8,"column":9}},"text":"m"}},{"time":39095,"data":{"action":"insertText","range":{"start":{"row":8,"column":9},"end":{"row":8,"column":10}},"text":"o"}},{"time":39189,"data":{"action":"insertText","range":{"start":{"row":8,"column":10},"end":{"row":8,"column":11}},"text":"v"}},{"time":39266,"data":{"action":"insertText","range":{"start":{"row":8,"column":11},"end":{"row":8,"column":12}},"text":"e"}},{"time":39699,"data":{"action":"insertText","range":{"start":{"row":8,"column":12},"end":{"row":8,"column":13}},"text":"F"}},{"time":39902,"data":{"action":"insertText","range":{"start":{"row":8,"column":13},"end":{"row":8,"column":14}},"text":"o"}},{"time":40020,"data":{"action":"insertText","range":{"start":{"row":8,"column":14},"end":{"row":8,"column":15}},"text":"r"}},{"time":40218,"data":{"action":"insertText","range":{"start":{"row":8,"column":15},"end":{"row":8,"column":16}},"text":"w"}},{"time":40428,"data":{"action":"insertText","range":{"start":{"row":8,"column":16},"end":{"row":8,"column":17}},"text":"a"}},{"time":40515,"data":{"action":"insertText","range":{"start":{"row":8,"column":17},"end":{"row":8,"column":18}},"text":"r"}},{"time":40715,"data":{"action":"insertText","range":{"start":{"row":8,"column":18},"end":{"row":8,"column":19}},"text":"d"}},{"time":41089,"data":{"action":"insertText","range":{"start":{"row":8,"column":19},"end":{"row":8,"column":21}},"text":"()"}},{"time":41483,"data":{"action":"insertText","range":{"start":{"row":8,"column":21},"end":{"row":8,"column":22}},"text":";"}},{"time":42865,"data":{"action":"insertText","range":{"start":{"row":8,"column":22},"end":{"row":9,"column":0}},"text":"\n"}},{"time":42865,"data":{"action":"insertText","range":{"start":{"row":9,"column":0},"end":{"row":9,"column":8}},"text":"        "}},{"time":43036,"data":{"action":"insertText","range":{"start":{"row":9,"column":8},"end":{"row":10,"column":0}},"text":"\n"}},{"time":43036,"data":{"action":"insertText","range":{"start":{"row":10,"column":0},"end":{"row":10,"column":8}},"text":"        "}},{"time":43254,"data":{"action":"insertText","range":{"start":{"row":10,"column":8},"end":{"row":10,"column":9}},"text":"c"}},{"time":43418,"data":{"action":"insertText","range":{"start":{"row":10,"column":9},"end":{"row":10,"column":10}},"text":"i"}},{"time":43574,"data":{"action":"insertText","range":{"start":{"row":10,"column":10},"end":{"row":10,"column":11}},"text":"r"}},{"time":43844,"data":{"action":"insertText","range":{"start":{"row":10,"column":11},"end":{"row":10,"column":12}},"text":"c"}},{"time":44091,"data":{"action":"insertText","range":{"start":{"row":10,"column":12},"end":{"row":10,"column":13}},"text":"l"}},{"time":44254,"data":{"action":"insertText","range":{"start":{"row":10,"column":13},"end":{"row":10,"column":14}},"text":"e"}},{"time":44577,"data":{"action":"insertText","range":{"start":{"row":10,"column":14},"end":{"row":10,"column":16}},"text":"()"}},{"time":45150,"data":{"action":"insertText","range":{"start":{"row":10,"column":16},"end":{"row":10,"column":17}},"text":";"}},{"time":45445,"data":{"action":"insertText","range":{"start":{"row":10,"column":17},"end":{"row":11,"column":0}},"text":"\n"}},{"time":45445,"data":{"action":"insertText","range":{"start":{"row":11,"column":0},"end":{"row":11,"column":8}},"text":"        "}},{"time":45837,"data":{"action":"insertText","range":{"start":{"row":11,"column":8},"end":{"row":11,"column":9}},"text":"t"}},{"time":46078,"data":{"action":"insertText","range":{"start":{"row":11,"column":9},"end":{"row":11,"column":10}},"text":"u"}},{"time":46322,"data":{"action":"insertText","range":{"start":{"row":11,"column":10},"end":{"row":11,"column":11}},"text":"r"}},{"time":46505,"data":{"action":"insertText","range":{"start":{"row":11,"column":11},"end":{"row":11,"column":12}},"text":"n"}},{"time":46735,"data":{"action":"insertText","range":{"start":{"row":11,"column":12},"end":{"row":11,"column":13}},"text":"L"}},{"time":46920,"data":{"action":"insertText","range":{"start":{"row":11,"column":13},"end":{"row":11,"column":14}},"text":"e"}},{"time":47074,"data":{"action":"insertText","range":{"start":{"row":11,"column":14},"end":{"row":11,"column":15}},"text":"f"}},{"time":47277,"data":{"action":"insertText","range":{"start":{"row":11,"column":15},"end":{"row":11,"column":16}},"text":"t"}},{"time":47446,"data":{"action":"insertText","range":{"start":{"row":11,"column":16},"end":{"row":11,"column":18}},"text":"()"}},{"time":47738,"data":{"action":"insertText","range":{"start":{"row":11,"column":18},"end":{"row":11,"column":19}},"text":";"}},{"time":47920,"data":{"action":"insertText","range":{"start":{"row":11,"column":19},"end":{"row":12,"column":0}},"text":"\n"}},{"time":47920,"data":{"action":"insertText","range":{"start":{"row":12,"column":0},"end":{"row":12,"column":8}},"text":"        "}},{"time":48184,"data":{"action":"insertText","range":{"start":{"row":12,"column":8},"end":{"row":12,"column":9}},"text":"m"}},{"time":48235,"data":{"action":"insertText","range":{"start":{"row":12,"column":9},"end":{"row":12,"column":10}},"text":"o"}},{"time":48467,"data":{"action":"insertText","range":{"start":{"row":12,"column":10},"end":{"row":12,"column":11}},"text":"v"}},{"time":48554,"data":{"action":"insertText","range":{"start":{"row":12,"column":11},"end":{"row":12,"column":12}},"text":"e"}},{"time":48870,"data":{"action":"insertText","range":{"start":{"row":12,"column":12},"end":{"row":12,"column":13}},"text":"F"}},{"time":49053,"data":{"action":"insertText","range":{"start":{"row":12,"column":13},"end":{"row":12,"column":14}},"text":"o"}},{"time":49156,"data":{"action":"insertText","range":{"start":{"row":12,"column":14},"end":{"row":12,"column":15}},"text":"r"}},{"time":49320,"data":{"action":"insertText","range":{"start":{"row":12,"column":15},"end":{"row":12,"column":16}},"text":"w"}},{"time":49525,"data":{"action":"insertText","range":{"start":{"row":12,"column":16},"end":{"row":12,"column":17}},"text":"a"}},{"time":49616,"data":{"action":"insertText","range":{"start":{"row":12,"column":17},"end":{"row":12,"column":18}},"text":"r"}},{"time":49660,"data":{"action":"insertText","range":{"start":{"row":12,"column":18},"end":{"row":12,"column":19}},"text":"d"}},{"time":49965,"data":{"action":"insertText","range":{"start":{"row":12,"column":19},"end":{"row":12,"column":21}},"text":"()"}},{"time":50257,"data":{"action":"insertText","range":{"start":{"row":12,"column":21},"end":{"row":12,"column":22}},"text":";"}},{"time":50625,"data":{"action":"insertText","range":{"start":{"row":12,"column":22},"end":{"row":13,"column":0}},"text":"\n"}},{"time":50625,"data":{"action":"insertText","range":{"start":{"row":13,"column":0},"end":{"row":13,"column":8}},"text":"        "}},{"time":51136,"data":{"action":"insertText","range":{"start":{"row":13,"column":8},"end":{"row":14,"column":0}},"text":"\n"}},{"time":51136,"data":{"action":"insertText","range":{"start":{"row":14,"column":0},"end":{"row":14,"column":8}},"text":"        "}},{"time":51279,"data":{"action":"insertText","range":{"start":{"row":14,"column":8},"end":{"row":14,"column":9}},"text":"c"}},{"time":51503,"data":{"action":"insertText","range":{"start":{"row":14,"column":9},"end":{"row":14,"column":10}},"text":"i"}},{"time":51857,"data":{"action":"insertText","range":{"start":{"row":14,"column":10},"end":{"row":14,"column":11}},"text":"r"}},{"time":52952,"data":{"action":"insertText","range":{"start":{"row":14,"column":11},"end":{"row":14,"column":12}},"text":"."}},{"time":53235,"data":{"action":"insertText","range":{"start":{"row":14,"column":12},"end":{"row":14,"column":13}},"text":"."}},{"time":53595,"data":{"action":"insertText","range":{"start":{"row":14,"column":13},"end":{"row":14,"column":14}},"text":"."}},{"time":57766,"data":{"action":"removeText","range":{"start":{"row":14,"column":13},"end":{"row":14,"column":14}},"text":"."}},{"time":58119,"data":{"action":"removeText","range":{"start":{"row":14,"column":12},"end":{"row":14,"column":13}},"text":"."}},{"time":58532,"data":{"action":"removeText","range":{"start":{"row":14,"column":11},"end":{"row":14,"column":12}},"text":"."}},{"time":58950,"data":{"action":"removeText","range":{"start":{"row":14,"column":10},"end":{"row":14,"column":11}},"text":"r"}},{"time":59274,"data":{"action":"removeText","range":{"start":{"row":14,"column":9},"end":{"row":14,"column":10}},"text":"i"}},{"time":59593,"data":{"action":"removeText","range":{"start":{"row":14,"column":8},"end":{"row":14,"column":9}},"text":"c"}},{"time":75154,"data":{"action":"removeLines","range":{"start":{"row":6,"column":0},"end":{"row":15,"column":0}},"nl":"\n","lines":["        circle();","        turnLeft();","        moveForward();","        ","        circle();","        turnLeft();","        moveForward();","        ","        "]}},{"time":79534,"data":{"action":"insertText","range":{"start":{"row":6,"column":5},"end":{"row":7,"column":0}},"text":"\n"}},{"time":79534,"data":{"action":"insertText","range":{"start":{"row":7,"column":0},"end":{"row":7,"column":4}},"text":"    "}},{"time":80004,"data":{"action":"insertText","range":{"start":{"row":7,"column":4},"end":{"row":8,"column":0}},"text":"\n"}},{"time":80004,"data":{"action":"insertText","range":{"start":{"row":8,"column":0},"end":{"row":8,"column":4}},"text":"    "}},{"time":91388,"data":{"action":"insertText","range":{"start":{"row":8,"column":4},"end":{"row":8,"column":5}},"text":"s"}},{"time":92006,"data":{"action":"insertText","range":{"start":{"row":8,"column":5},"end":{"row":8,"column":6}},"text":"t"}},{"time":92306,"data":{"action":"insertText","range":{"start":{"row":8,"column":6},"end":{"row":8,"column":7}},"text":"a"}},{"time":92829,"data":{"action":"insertText","range":{"start":{"row":8,"column":7},"end":{"row":8,"column":8}},"text":"t"}},{"time":93217,"data":{"action":"insertText","range":{"start":{"row":8,"column":8},"end":{"row":8,"column":9}},"text":"i"}},{"time":93682,"data":{"action":"insertText","range":{"start":{"row":8,"column":9},"end":{"row":8,"column":10}},"text":"c"}},{"time":94287,"data":{"action":"insertText","range":{"start":{"row":8,"column":10},"end":{"row":8,"column":11}},"text":" "}},{"time":95129,"data":{"action":"insertText","range":{"start":{"row":8,"column":11},"end":{"row":8,"column":12}},"text":"v"}},{"time":95733,"data":{"action":"insertText","range":{"start":{"row":8,"column":12},"end":{"row":8,"column":13}},"text":"o"}},{"time":96003,"data":{"action":"insertText","range":{"start":{"row":8,"column":13},"end":{"row":8,"column":14}},"text":"i"}},{"time":96403,"data":{"action":"insertText","range":{"start":{"row":8,"column":14},"end":{"row":8,"column":15}},"text":"d"}},{"time":97353,"data":{"action":"insertText","range":{"start":{"row":8,"column":15},"end":{"row":8,"column":16}},"text":" "}},{"time":104801,"data":{"action":"insertText","range":{"start":{"row":8,"column":16},"end":{"row":8,"column":17}},"text":"p"}},{"time":105128,"data":{"action":"insertText","range":{"start":{"row":8,"column":17},"end":{"row":8,"column":18}},"text":"a"}},{"time":105410,"data":{"action":"insertText","range":{"start":{"row":8,"column":18},"end":{"row":8,"column":19}},"text":"t"}},{"time":105653,"data":{"action":"insertText","range":{"start":{"row":8,"column":19},"end":{"row":8,"column":20}},"text":"t"}},{"time":106012,"data":{"action":"insertText","range":{"start":{"row":8,"column":20},"end":{"row":8,"column":21}},"text":"e"}},{"time":106264,"data":{"action":"insertText","range":{"start":{"row":8,"column":21},"end":{"row":8,"column":22}},"text":"r"}},{"time":106683,"data":{"action":"insertText","range":{"start":{"row":8,"column":22},"end":{"row":8,"column":23}},"text":"n"}},{"time":108619,"data":{"action":"insertText","range":{"start":{"row":8,"column":23},"end":{"row":8,"column":25}},"text":"()"}},{"time":109741,"data":{"action":"insertText","range":{"start":{"row":8,"column":25},"end":{"row":8,"column":26}},"text":" "}},{"time":109943,"data":{"action":"insertText","range":{"start":{"row":8,"column":26},"end":{"row":8,"column":27}},"text":"{"}},{"time":113042,"data":{"action":"removeText","range":{"start":{"row":8,"column":26},"end":{"row":8,"column":27}},"text":"{"}},{"time":116978,"data":{"action":"insertText","range":{"start":{"row":8,"column":26},"end":{"row":8,"column":27}},"text":"{"}},{"time":117714,"data":{"action":"insertText","range":{"start":{"row":8,"column":27},"end":{"row":9,"column":0}},"text":"\n"}},{"time":117714,"data":{"action":"insertLines","range":{"start":{"row":9,"column":0},"end":{"row":10,"column":0}},"lines":["        "]}},{"time":117714,"data":{"action":"insertText","range":{"start":{"row":10,"column":0},"end":{"row":10,"column":5}},"text":"    }"}},{"time":137054,"data":{"action":"removeLines","range":{"start":{"row":9,"column":0},"end":{"row":10,"column":0}},"nl":"\n","lines":["        "]}},{"time":137054,"data":{"action":"insertText","range":{"start":{"row":9,"column":0},"end":{"row":9,"column":17}},"text":"        circle();"}},{"time":137055,"data":{"action":"insertText","range":{"start":{"row":9,"column":17},"end":{"row":10,"column":0}},"text":"\n"}},{"time":137055,"data":{"action":"insertLines","range":{"start":{"row":10,"column":0},"end":{"row":12,"column":0}},"lines":["        turnLeft();","        moveForward();"]}},{"time":141511,"data":{"action":"removeText","range":{"start":{"row":5,"column":4},"end":{"row":5,"column":8}},"text":"    "}},{"time":141748,"data":{"action":"removeText","range":{"start":{"row":5,"column":0},"end":{"row":5,"column":4}},"text":"    "}},{"time":142039,"data":{"action":"removeText","range":{"start":{"row":4,"column":22},"end":{"row":5,"column":0}},"text":"\n"}},{"time":142291,"data":{"action":"removeText","range":{"start":{"row":4,"column":21},"end":{"row":4,"column":22}},"text":";"}},{"time":142540,"data":{"action":"removeText","range":{"start":{"row":4,"column":20},"end":{"row":4,"column":21}},"text":")"}},{"time":142813,"data":{"action":"removeText","range":{"start":{"row":4,"column":19},"end":{"row":4,"column":20}},"text":"("}},{"time":143062,"data":{"action":"removeText","range":{"start":{"row":4,"column":18},"end":{"row":4,"column":19}},"text":"d"}},{"time":144278,"data":{"action":"removeText","range":{"start":{"row":4,"column":8},"end":{"row":4,"column":18}},"text":"moveForwar"}},{"time":145471,"data":{"action":"removeText","range":{"start":{"row":4,"column":0},"end":{"row":4,"column":8}},"text":"        "}},{"time":145471,"data":{"action":"removeText","range":{"start":{"row":3,"column":8},"end":{"row":3,"column":19}},"text":"turnLeft();"}},{"time":145471,"data":{"action":"removeText","range":{"start":{"row":3,"column":8},"end":{"row":4,"column":0}},"text":"\n"}},{"time":146386,"data":{"action":"removeText","range":{"start":{"row":3,"column":0},"end":{"row":3,"column":8}},"text":"        "}},{"time":146386,"data":{"action":"removeText","range":{"start":{"row":2,"column":8},"end":{"row":2,"column":17}},"text":"circle();"}},{"time":146386,"data":{"action":"removeText","range":{"start":{"row":2,"column":8},"end":{"row":3,"column":0}},"text":"\n"}},{"time":154645,"data":{"action":"insertText","range":{"start":{"row":2,"column":8},"end":{"row":2,"column":9}},"text":"p"}},{"time":154981,"data":{"action":"insertText","range":{"start":{"row":2,"column":9},"end":{"row":2,"column":10}},"text":"a"}},{"time":155345,"data":{"action":"insertText","range":{"start":{"row":2,"column":10},"end":{"row":2,"column":11}},"text":"t"}},{"time":155668,"data":{"action":"insertText","range":{"start":{"row":2,"column":11},"end":{"row":2,"column":12}},"text":"t"}},{"time":155944,"data":{"action":"insertText","range":{"start":{"row":2,"column":12},"end":{"row":2,"column":13}},"text":"e"}},{"time":156158,"data":{"action":"insertText","range":{"start":{"row":2,"column":13},"end":{"row":2,"column":14}},"text":"r"}},{"time":156420,"data":{"action":"insertText","range":{"start":{"row":2,"column":14},"end":{"row":2,"column":15}},"text":"n"}},{"time":156800,"data":{"action":"insertText","range":{"start":{"row":2,"column":15},"end":{"row":2,"column":17}},"text":"()"}},{"time":157407,"data":{"action":"insertText","range":{"start":{"row":2,"column":17},"end":{"row":2,"column":18}},"text":";"}},{"time":158766,"data":{"action":"insertText","range":{"start":{"row":2,"column":18},"end":{"row":3,"column":0}},"text":"\n"}},{"time":158767,"data":{"action":"insertText","range":{"start":{"row":3,"column":0},"end":{"row":3,"column":8}},"text":"        "}},{"time":160400,"data":{"action":"insertText","range":{"start":{"row":3,"column":8},"end":{"row":3,"column":9}},"text":"p"}},{"time":160666,"data":{"action":"insertText","range":{"start":{"row":3,"column":9},"end":{"row":3,"column":10}},"text":"a"}},{"time":160984,"data":{"action":"insertText","range":{"start":{"row":3,"column":10},"end":{"row":3,"column":11}},"text":"t"}},{"time":161236,"data":{"action":"insertText","range":{"start":{"row":3,"column":11},"end":{"row":3,"column":12}},"text":"t"}},{"time":161469,"data":{"action":"insertText","range":{"start":{"row":3,"column":12},"end":{"row":3,"column":13}},"text":"e"}},{"time":161711,"data":{"action":"insertText","range":{"start":{"row":3,"column":13},"end":{"row":3,"column":14}},"text":"r"}},{"time":161976,"data":{"action":"insertText","range":{"start":{"row":3,"column":14},"end":{"row":3,"column":15}},"text":"n"}},{"time":162330,"data":{"action":"insertText","range":{"start":{"row":3,"column":15},"end":{"row":3,"column":17}},"text":"()"}},{"time":162893,"data":{"action":"insertText","range":{"start":{"row":3,"column":17},"end":{"row":3,"column":18}},"text":";"}},{"time":165255,"data":{"action":"insertText","range":{"start":{"row":3,"column":18},"end":{"row":4,"column":0}},"text":"\n"}},{"time":165255,"data":{"action":"insertText","range":{"start":{"row":4,"column":0},"end":{"row":4,"column":8}},"text":"        "}},{"time":166123,"data":{"action":"insertText","range":{"start":{"row":4,"column":8},"end":{"row":4,"column":18}},"text":"pattern();"}},{"time":167458,"data":{"action":"insertText","range":{"start":{"row":4,"column":18},"end":{"row":5,"column":0}},"text":"\n"}},{"time":167458,"data":{"action":"insertText","range":{"start":{"row":5,"column":0},"end":{"row":5,"column":8}},"text":"        "}},{"time":168854,"data":{"action":"insertText","range":{"start":{"row":5,"column":8},"end":{"row":5,"column":18}},"text":"pattern();"}},{"time":181034,"data":{"action":"insertText","range":{"start":{"row":32,"column":5},"end":{"row":33,"column":0}},"text":"\n"}},{"time":181034,"data":{"action":"insertText","range":{"start":{"row":33,"column":0},"end":{"row":33,"column":4}},"text":"    "}},{"time":181464,"data":{"action":"insertText","range":{"start":{"row":33,"column":4},"end":{"row":34,"column":0}},"text":"\n"}},{"time":181464,"data":{"action":"insertText","range":{"start":{"row":34,"column":0},"end":{"row":34,"column":4}},"text":"    "}},{"time":183887,"data":{"action":"insertText","range":{"start":{"row":34,"column":4},"end":{"row":34,"column":5}},"text":"s"}},{"time":184354,"data":{"action":"insertText","range":{"start":{"row":34,"column":5},"end":{"row":34,"column":6}},"text":"t"}},{"time":184664,"data":{"action":"insertText","range":{"start":{"row":34,"column":6},"end":{"row":34,"column":7}},"text":"a"}},{"time":185003,"data":{"action":"insertText","range":{"start":{"row":34,"column":7},"end":{"row":34,"column":8}},"text":"t"}},{"time":185272,"data":{"action":"insertText","range":{"start":{"row":34,"column":8},"end":{"row":34,"column":9}},"text":"i"}},{"time":185534,"data":{"action":"insertText","range":{"start":{"row":34,"column":9},"end":{"row":34,"column":10}},"text":"c"}},{"time":185807,"data":{"action":"insertText","range":{"start":{"row":34,"column":10},"end":{"row":34,"column":11}},"text":" "}},{"time":186131,"data":{"action":"insertText","range":{"start":{"row":34,"column":11},"end":{"row":34,"column":12}},"text":"v"}},{"time":186381,"data":{"action":"insertText","range":{"start":{"row":34,"column":12},"end":{"row":34,"column":13}},"text":"o"}},{"time":186676,"data":{"action":"insertText","range":{"start":{"row":34,"column":13},"end":{"row":34,"column":14}},"text":"i"}},{"time":186928,"data":{"action":"insertText","range":{"start":{"row":34,"column":14},"end":{"row":34,"column":15}},"text":"d"}},{"time":187203,"data":{"action":"insertText","range":{"start":{"row":34,"column":15},"end":{"row":34,"column":16}},"text":" "}},{"time":189698,"data":{"action":"insertText","range":{"start":{"row":34,"column":16},"end":{"row":34,"column":17}},"text":"c"}},{"time":190118,"data":{"action":"insertText","range":{"start":{"row":34,"column":17},"end":{"row":34,"column":18}},"text":"i"}},{"time":190560,"data":{"action":"insertText","range":{"start":{"row":34,"column":18},"end":{"row":34,"column":19}},"text":"r"}},{"time":190924,"data":{"action":"insertText","range":{"start":{"row":34,"column":19},"end":{"row":34,"column":20}},"text":"c"}},{"time":191158,"data":{"action":"insertText","range":{"start":{"row":34,"column":20},"end":{"row":34,"column":21}},"text":"l"}},{"time":191434,"data":{"action":"insertText","range":{"start":{"row":34,"column":21},"end":{"row":34,"column":22}},"text":"e"}},{"time":192010,"data":{"action":"insertText","range":{"start":{"row":34,"column":22},"end":{"row":34,"column":23}},"text":"S"}},{"time":192367,"data":{"action":"insertText","range":{"start":{"row":34,"column":23},"end":{"row":34,"column":24}},"text":"e"}},{"time":192597,"data":{"action":"insertText","range":{"start":{"row":34,"column":24},"end":{"row":34,"column":25}},"text":"g"}},{"time":192907,"data":{"action":"insertText","range":{"start":{"row":34,"column":25},"end":{"row":34,"column":26}},"text":"m"}},{"time":193126,"data":{"action":"insertText","range":{"start":{"row":34,"column":26},"end":{"row":34,"column":27}},"text":"e"}},{"time":193408,"data":{"action":"insertText","range":{"start":{"row":34,"column":27},"end":{"row":34,"column":28}},"text":"n"}},{"time":193869,"data":{"action":"insertText","range":{"start":{"row":34,"column":28},"end":{"row":34,"column":29}},"text":"t"}},{"time":194608,"data":{"action":"insertText","range":{"start":{"row":34,"column":29},"end":{"row":34,"column":31}},"text":"()"}},{"time":196693,"data":{"action":"insertText","range":{"start":{"row":34,"column":31},"end":{"row":34,"column":32}},"text":" "}},{"time":196959,"data":{"action":"insertText","range":{"start":{"row":34,"column":32},"end":{"row":34,"column":33}},"text":"{"}},{"time":197596,"data":{"action":"insertText","range":{"start":{"row":34,"column":33},"end":{"row":35,"column":0}},"text":"\n"}},{"time":197596,"data":{"action":"insertLines","range":{"start":{"row":35,"column":0},"end":{"row":36,"column":0}},"lines":["        "]}},{"time":197596,"data":{"action":"insertText","range":{"start":{"row":36,"column":0},"end":{"row":36,"column":5}},"text":"    }"}},{"time":207204,"data":{"action":"removeLines","range":{"start":{"row":35,"column":0},"end":{"row":36,"column":0}},"nl":"\n","lines":["        "]}},{"time":207204,"data":{"action":"insertText","range":{"start":{"row":35,"column":0},"end":{"row":35,"column":22}},"text":"        moveForward();"}},{"time":207204,"data":{"action":"insertText","range":{"start":{"row":35,"column":22},"end":{"row":36,"column":0}},"text":"\n"}},{"time":207204,"data":{"action":"insertLines","range":{"start":{"row":36,"column":0},"end":{"row":37,"column":0}},"lines":["        turnLeft();"]}},{"time":209988,"data":{"action":"insertText","range":{"start":{"row":33,"column":4},"end":{"row":34,"column":0}},"text":"\n"}},{"time":209988,"data":{"action":"insertText","range":{"start":{"row":34,"column":0},"end":{"row":34,"column":4}},"text":"    "}},{"time":210490,"data":{"action":"insertText","range":{"start":{"row":34,"column":4},"end":{"row":34,"column":5}},"text":"/"}},{"time":210714,"data":{"action":"insertText","range":{"start":{"row":34,"column":5},"end":{"row":34,"column":6}},"text":"/"}},{"time":210822,"data":{"action":"insertText","range":{"start":{"row":34,"column":6},"end":{"row":34,"column":7}},"text":" "}},{"time":211931,"data":{"action":"insertText","range":{"start":{"row":34,"column":7},"end":{"row":34,"column":8}},"text":"d"}},{"time":212460,"data":{"action":"insertText","range":{"start":{"row":34,"column":8},"end":{"row":34,"column":9}},"text":"r"}},{"time":212735,"data":{"action":"insertText","range":{"start":{"row":34,"column":9},"end":{"row":34,"column":10}},"text":"a"}},{"time":212972,"data":{"action":"insertText","range":{"start":{"row":34,"column":10},"end":{"row":34,"column":11}},"text":"w"}},{"time":213177,"data":{"action":"insertText","range":{"start":{"row":34,"column":11},"end":{"row":34,"column":12}},"text":"s"}},{"time":213396,"data":{"action":"insertText","range":{"start":{"row":34,"column":12},"end":{"row":34,"column":13}},"text":" "}},{"time":214199,"data":{"action":"insertText","range":{"start":{"row":34,"column":13},"end":{"row":34,"column":14}},"text":"o"}},{"time":214563,"data":{"action":"insertText","range":{"start":{"row":34,"column":14},"end":{"row":34,"column":15}},"text":"n"}},{"time":214784,"data":{"action":"insertText","range":{"start":{"row":34,"column":15},"end":{"row":34,"column":16}},"text":"e"}},{"time":214987,"data":{"action":"insertText","range":{"start":{"row":34,"column":16},"end":{"row":34,"column":17}},"text":" "}},{"time":216145,"data":{"action":"insertText","range":{"start":{"row":34,"column":17},"end":{"row":34,"column":18}},"text":"s"}},{"time":216402,"data":{"action":"insertText","range":{"start":{"row":34,"column":18},"end":{"row":34,"column":19}},"text":"i"}},{"time":216731,"data":{"action":"insertText","range":{"start":{"row":34,"column":19},"end":{"row":34,"column":20}},"text":"d"}},{"time":216984,"data":{"action":"insertText","range":{"start":{"row":34,"column":20},"end":{"row":34,"column":21}},"text":"e"}},{"time":217250,"data":{"action":"insertText","range":{"start":{"row":34,"column":21},"end":{"row":34,"column":22}},"text":" "}},{"time":217574,"data":{"action":"insertText","range":{"start":{"row":34,"column":22},"end":{"row":34,"column":23}},"text":"o"}},{"time":217749,"data":{"action":"insertText","range":{"start":{"row":34,"column":23},"end":{"row":34,"column":24}},"text":"f"}},{"time":217901,"data":{"action":"insertText","range":{"start":{"row":34,"column":24},"end":{"row":34,"column":25}},"text":" "}},{"time":218188,"data":{"action":"insertText","range":{"start":{"row":34,"column":25},"end":{"row":34,"column":26}},"text":"t"}},{"time":218474,"data":{"action":"insertText","range":{"start":{"row":34,"column":26},"end":{"row":34,"column":27}},"text":"h"}},{"time":218666,"data":{"action":"insertText","range":{"start":{"row":34,"column":27},"end":{"row":34,"column":28}},"text":"e"}},{"time":218901,"data":{"action":"insertText","range":{"start":{"row":34,"column":28},"end":{"row":34,"column":29}},"text":" "}},{"time":219092,"data":{"action":"insertText","range":{"start":{"row":34,"column":29},"end":{"row":34,"column":30}},"text":"c"}},{"time":219236,"data":{"action":"insertText","range":{"start":{"row":34,"column":30},"end":{"row":34,"column":31}},"text":"i"}},{"time":219451,"data":{"action":"insertText","range":{"start":{"row":34,"column":31},"end":{"row":34,"column":32}},"text":"r"}},{"time":219690,"data":{"action":"insertText","range":{"start":{"row":34,"column":32},"end":{"row":34,"column":33}},"text":"c"}},{"time":219854,"data":{"action":"insertText","range":{"start":{"row":34,"column":33},"end":{"row":34,"column":34}},"text":"l"}},{"time":220046,"data":{"action":"insertText","range":{"start":{"row":34,"column":34},"end":{"row":34,"column":35}},"text":"e"}},{"time":225187,"data":{"action":"removeText","range":{"start":{"row":31,"column":18},"end":{"row":31,"column":19}},"text":";"}},{"time":225751,"data":{"action":"removeText","range":{"start":{"row":31,"column":17},"end":{"row":31,"column":18}},"text":")"}},{"time":225785,"data":{"action":"removeText","range":{"start":{"row":31,"column":16},"end":{"row":31,"column":17}},"text":"("}},{"time":225815,"data":{"action":"removeText","range":{"start":{"row":31,"column":15},"end":{"row":31,"column":16}},"text":"t"}},{"time":225845,"data":{"action":"removeText","range":{"start":{"row":31,"column":14},"end":{"row":31,"column":15}},"text":"f"}},{"time":225876,"data":{"action":"removeText","range":{"start":{"row":31,"column":13},"end":{"row":31,"column":14}},"text":"e"}},{"time":225908,"data":{"action":"removeText","range":{"start":{"row":31,"column":12},"end":{"row":31,"column":13}},"text":"L"}},{"time":225939,"data":{"action":"removeText","range":{"start":{"row":31,"column":11},"end":{"row":31,"column":12}},"text":"n"}},{"time":225971,"data":{"action":"removeText","range":{"start":{"row":31,"column":10},"end":{"row":31,"column":11}},"text":"r"}},{"time":226003,"data":{"action":"removeText","range":{"start":{"row":31,"column":9},"end":{"row":31,"column":10}},"text":"u"}},{"time":226032,"data":{"action":"removeText","range":{"start":{"row":31,"column":8},"end":{"row":31,"column":9}},"text":"t"}},{"time":226063,"data":{"action":"removeText","range":{"start":{"row":31,"column":4},"end":{"row":31,"column":8}},"text":"    "}},{"time":226098,"data":{"action":"removeText","range":{"start":{"row":31,"column":0},"end":{"row":31,"column":4}},"text":"    "}},{"time":226129,"data":{"action":"removeText","range":{"start":{"row":30,"column":22},"end":{"row":31,"column":0}},"text":"\n"}},{"time":226159,"data":{"action":"removeText","range":{"start":{"row":30,"column":21},"end":{"row":30,"column":22}},"text":";"}},{"time":226189,"data":{"action":"removeText","range":{"start":{"row":30,"column":20},"end":{"row":30,"column":21}},"text":")"}},{"time":226222,"data":{"action":"removeText","range":{"start":{"row":30,"column":19},"end":{"row":30,"column":20}},"text":"("}},{"time":226252,"data":{"action":"removeText","range":{"start":{"row":30,"column":18},"end":{"row":30,"column":19}},"text":"d"}},{"time":226283,"data":{"action":"removeText","range":{"start":{"row":30,"column":17},"end":{"row":30,"column":18}},"text":"r"}},{"time":226315,"data":{"action":"removeText","range":{"start":{"row":30,"column":16},"end":{"row":30,"column":17}},"text":"a"}},{"time":226345,"data":{"action":"removeText","range":{"start":{"row":30,"column":15},"end":{"row":30,"column":16}},"text":"w"}},{"time":226376,"data":{"action":"removeText","range":{"start":{"row":30,"column":14},"end":{"row":30,"column":15}},"text":"r"}},{"time":226408,"data":{"action":"removeText","range":{"start":{"row":30,"column":13},"end":{"row":30,"column":14}},"text":"o"}},{"time":226438,"data":{"action":"removeText","range":{"start":{"row":30,"column":12},"end":{"row":30,"column":13}},"text":"F"}},{"time":226470,"data":{"action":"removeText","range":{"start":{"row":30,"column":11},"end":{"row":30,"column":12}},"text":"e"}},{"time":226500,"data":{"action":"removeText","range":{"start":{"row":30,"column":10},"end":{"row":30,"column":11}},"text":"v"}},{"time":226531,"data":{"action":"removeText","range":{"start":{"row":30,"column":9},"end":{"row":30,"column":10}},"text":"o"}},{"time":226562,"data":{"action":"removeText","range":{"start":{"row":30,"column":8},"end":{"row":30,"column":9}},"text":"m"}},{"time":226592,"data":{"action":"removeText","range":{"start":{"row":30,"column":4},"end":{"row":30,"column":8}},"text":"    "}},{"time":226624,"data":{"action":"removeText","range":{"start":{"row":30,"column":0},"end":{"row":30,"column":4}},"text":"    "}},{"time":226654,"data":{"action":"removeText","range":{"start":{"row":29,"column":19},"end":{"row":30,"column":0}},"text":"\n"}},{"time":226684,"data":{"action":"removeText","range":{"start":{"row":29,"column":18},"end":{"row":29,"column":19}},"text":";"}},{"time":226716,"data":{"action":"removeText","range":{"start":{"row":29,"column":17},"end":{"row":29,"column":18}},"text":")"}},{"time":226748,"data":{"action":"removeText","range":{"start":{"row":29,"column":16},"end":{"row":29,"column":17}},"text":"("}},{"time":226778,"data":{"action":"removeText","range":{"start":{"row":29,"column":15},"end":{"row":29,"column":16}},"text":"t"}},{"time":226808,"data":{"action":"removeText","range":{"start":{"row":29,"column":14},"end":{"row":29,"column":15}},"text":"f"}},{"time":226841,"data":{"action":"removeText","range":{"start":{"row":29,"column":13},"end":{"row":29,"column":14}},"text":"e"}},{"time":226871,"data":{"action":"removeText","range":{"start":{"row":29,"column":12},"end":{"row":29,"column":13}},"text":"L"}},{"time":226905,"data":{"action":"removeText","range":{"start":{"row":29,"column":11},"end":{"row":29,"column":12}},"text":"n"}},{"time":226936,"data":{"action":"removeText","range":{"start":{"row":29,"column":10},"end":{"row":29,"column":11}},"text":"r"}},{"time":226966,"data":{"action":"removeText","range":{"start":{"row":29,"column":9},"end":{"row":29,"column":10}},"text":"u"}},{"time":226997,"data":{"action":"removeText","range":{"start":{"row":29,"column":8},"end":{"row":29,"column":9}},"text":"t"}},{"time":227029,"data":{"action":"removeText","range":{"start":{"row":29,"column":4},"end":{"row":29,"column":8}},"text":"    "}},{"time":227061,"data":{"action":"removeText","range":{"start":{"row":29,"column":0},"end":{"row":29,"column":4}},"text":"    "}},{"time":227092,"data":{"action":"removeText","range":{"start":{"row":28,"column":22},"end":{"row":29,"column":0}},"text":"\n"}},{"time":227122,"data":{"action":"removeText","range":{"start":{"row":28,"column":21},"end":{"row":28,"column":22}},"text":";"}},{"time":227157,"data":{"action":"removeText","range":{"start":{"row":28,"column":20},"end":{"row":28,"column":21}},"text":")"}},{"time":227188,"data":{"action":"removeText","range":{"start":{"row":28,"column":19},"end":{"row":28,"column":20}},"text":"("}},{"time":227219,"data":{"action":"removeText","range":{"start":{"row":28,"column":18},"end":{"row":28,"column":19}},"text":"d"}},{"time":227252,"data":{"action":"removeText","range":{"start":{"row":28,"column":17},"end":{"row":28,"column":18}},"text":"r"}},{"time":227282,"data":{"action":"removeText","range":{"start":{"row":28,"column":16},"end":{"row":28,"column":17}},"text":"a"}},{"time":227312,"data":{"action":"removeText","range":{"start":{"row":28,"column":15},"end":{"row":28,"column":16}},"text":"w"}},{"time":227345,"data":{"action":"removeText","range":{"start":{"row":28,"column":14},"end":{"row":28,"column":15}},"text":"r"}},{"time":227375,"data":{"action":"removeText","range":{"start":{"row":28,"column":13},"end":{"row":28,"column":14}},"text":"o"}},{"time":227405,"data":{"action":"removeText","range":{"start":{"row":28,"column":12},"end":{"row":28,"column":13}},"text":"F"}},{"time":227436,"data":{"action":"removeText","range":{"start":{"row":28,"column":11},"end":{"row":28,"column":12}},"text":"e"}},{"time":227468,"data":{"action":"removeText","range":{"start":{"row":28,"column":10},"end":{"row":28,"column":11}},"text":"v"}},{"time":227499,"data":{"action":"removeText","range":{"start":{"row":28,"column":9},"end":{"row":28,"column":10}},"text":"o"}},{"time":227531,"data":{"action":"removeText","range":{"start":{"row":28,"column":8},"end":{"row":28,"column":9}},"text":"m"}},{"time":227561,"data":{"action":"removeText","range":{"start":{"row":28,"column":4},"end":{"row":28,"column":8}},"text":"    "}},{"time":227593,"data":{"action":"removeText","range":{"start":{"row":28,"column":0},"end":{"row":28,"column":4}},"text":"    "}},{"time":227622,"data":{"action":"removeText","range":{"start":{"row":27,"column":19},"end":{"row":28,"column":0}},"text":"\n"}},{"time":227654,"data":{"action":"removeText","range":{"start":{"row":27,"column":18},"end":{"row":27,"column":19}},"text":";"}},{"time":227685,"data":{"action":"removeText","range":{"start":{"row":27,"column":17},"end":{"row":27,"column":18}},"text":")"}},{"time":227715,"data":{"action":"removeText","range":{"start":{"row":27,"column":16},"end":{"row":27,"column":17}},"text":"("}},{"time":227746,"data":{"action":"removeText","range":{"start":{"row":27,"column":15},"end":{"row":27,"column":16}},"text":"t"}},{"time":227778,"data":{"action":"removeText","range":{"start":{"row":27,"column":14},"end":{"row":27,"column":15}},"text":"f"}},{"time":227809,"data":{"action":"removeText","range":{"start":{"row":27,"column":13},"end":{"row":27,"column":14}},"text":"e"}},{"time":227839,"data":{"action":"removeText","range":{"start":{"row":27,"column":12},"end":{"row":27,"column":13}},"text":"L"}},{"time":227871,"data":{"action":"removeText","range":{"start":{"row":27,"column":11},"end":{"row":27,"column":12}},"text":"n"}},{"time":227901,"data":{"action":"removeText","range":{"start":{"row":27,"column":10},"end":{"row":27,"column":11}},"text":"r"}},{"time":227933,"data":{"action":"removeText","range":{"start":{"row":27,"column":9},"end":{"row":27,"column":10}},"text":"u"}},{"time":227964,"data":{"action":"removeText","range":{"start":{"row":27,"column":8},"end":{"row":27,"column":9}},"text":"t"}},{"time":227994,"data":{"action":"removeText","range":{"start":{"row":27,"column":4},"end":{"row":27,"column":8}},"text":"    "}},{"time":228026,"data":{"action":"removeText","range":{"start":{"row":27,"column":0},"end":{"row":27,"column":4}},"text":"    "}},{"time":228056,"data":{"action":"removeText","range":{"start":{"row":26,"column":22},"end":{"row":27,"column":0}},"text":"\n"}},{"time":228088,"data":{"action":"removeText","range":{"start":{"row":26,"column":21},"end":{"row":26,"column":22}},"text":";"}},{"time":228119,"data":{"action":"removeText","range":{"start":{"row":26,"column":20},"end":{"row":26,"column":21}},"text":")"}},{"time":228150,"data":{"action":"removeText","range":{"start":{"row":26,"column":19},"end":{"row":26,"column":20}},"text":"("}},{"time":228185,"data":{"action":"removeText","range":{"start":{"row":26,"column":18},"end":{"row":26,"column":19}},"text":"d"}},{"time":228214,"data":{"action":"removeText","range":{"start":{"row":26,"column":17},"end":{"row":26,"column":18}},"text":"r"}},{"time":228244,"data":{"action":"removeText","range":{"start":{"row":26,"column":16},"end":{"row":26,"column":17}},"text":"a"}},{"time":228278,"data":{"action":"removeText","range":{"start":{"row":26,"column":15},"end":{"row":26,"column":16}},"text":"w"}},{"time":228306,"data":{"action":"removeText","range":{"start":{"row":26,"column":14},"end":{"row":26,"column":15}},"text":"r"}},{"time":228338,"data":{"action":"removeText","range":{"start":{"row":26,"column":13},"end":{"row":26,"column":14}},"text":"o"}},{"time":228366,"data":{"action":"removeText","range":{"start":{"row":26,"column":12},"end":{"row":26,"column":13}},"text":"F"}},{"time":228398,"data":{"action":"removeText","range":{"start":{"row":26,"column":11},"end":{"row":26,"column":12}},"text":"e"}},{"time":228429,"data":{"action":"removeText","range":{"start":{"row":26,"column":10},"end":{"row":26,"column":11}},"text":"v"}},{"time":228460,"data":{"action":"removeText","range":{"start":{"row":26,"column":9},"end":{"row":26,"column":10}},"text":"o"}},{"time":228491,"data":{"action":"removeText","range":{"start":{"row":26,"column":8},"end":{"row":26,"column":9}},"text":"m"}},{"time":228520,"data":{"action":"removeText","range":{"start":{"row":26,"column":4},"end":{"row":26,"column":8}},"text":"    "}},{"time":228551,"data":{"action":"removeText","range":{"start":{"row":26,"column":0},"end":{"row":26,"column":4}},"text":"    "}},{"time":228582,"data":{"action":"removeText","range":{"start":{"row":25,"column":19},"end":{"row":26,"column":0}},"text":"\n"}},{"time":228612,"data":{"action":"removeText","range":{"start":{"row":25,"column":18},"end":{"row":25,"column":19}},"text":";"}},{"time":228642,"data":{"action":"removeText","range":{"start":{"row":25,"column":17},"end":{"row":25,"column":18}},"text":")"}},{"time":228673,"data":{"action":"removeText","range":{"start":{"row":25,"column":16},"end":{"row":25,"column":17}},"text":"("}},{"time":228706,"data":{"action":"removeText","range":{"start":{"row":25,"column":15},"end":{"row":25,"column":16}},"text":"t"}},{"time":228736,"data":{"action":"removeText","range":{"start":{"row":25,"column":14},"end":{"row":25,"column":15}},"text":"f"}},{"time":228767,"data":{"action":"removeText","range":{"start":{"row":25,"column":13},"end":{"row":25,"column":14}},"text":"e"}},{"time":228806,"data":{"action":"removeText","range":{"start":{"row":25,"column":12},"end":{"row":25,"column":13}},"text":"L"}},{"time":228836,"data":{"action":"removeText","range":{"start":{"row":25,"column":11},"end":{"row":25,"column":12}},"text":"n"}},{"time":228866,"data":{"action":"removeText","range":{"start":{"row":25,"column":10},"end":{"row":25,"column":11}},"text":"r"}},{"time":228898,"data":{"action":"removeText","range":{"start":{"row":25,"column":9},"end":{"row":25,"column":10}},"text":"u"}},{"time":228928,"data":{"action":"removeText","range":{"start":{"row":25,"column":8},"end":{"row":25,"column":9}},"text":"t"}},{"time":228959,"data":{"action":"removeText","range":{"start":{"row":25,"column":4},"end":{"row":25,"column":8}},"text":"    "}},{"time":228989,"data":{"action":"removeText","range":{"start":{"row":25,"column":0},"end":{"row":25,"column":4}},"text":"    "}},{"time":229021,"data":{"action":"removeText","range":{"start":{"row":24,"column":22},"end":{"row":25,"column":0}},"text":"\n"}},{"time":229052,"data":{"action":"removeText","range":{"start":{"row":24,"column":21},"end":{"row":24,"column":22}},"text":";"}},{"time":229082,"data":{"action":"removeText","range":{"start":{"row":24,"column":20},"end":{"row":24,"column":21}},"text":")"}},{"time":229114,"data":{"action":"removeText","range":{"start":{"row":24,"column":19},"end":{"row":24,"column":20}},"text":"("}},{"time":229144,"data":{"action":"removeText","range":{"start":{"row":24,"column":18},"end":{"row":24,"column":19}},"text":"d"}},{"time":229175,"data":{"action":"removeText","range":{"start":{"row":24,"column":17},"end":{"row":24,"column":18}},"text":"r"}},{"time":229210,"data":{"action":"removeText","range":{"start":{"row":24,"column":16},"end":{"row":24,"column":17}},"text":"a"}},{"time":229241,"data":{"action":"removeText","range":{"start":{"row":24,"column":15},"end":{"row":24,"column":16}},"text":"w"}},{"time":229271,"data":{"action":"removeText","range":{"start":{"row":24,"column":14},"end":{"row":24,"column":15}},"text":"r"}},{"time":229302,"data":{"action":"removeText","range":{"start":{"row":24,"column":13},"end":{"row":24,"column":14}},"text":"o"}},{"time":229334,"data":{"action":"removeText","range":{"start":{"row":24,"column":12},"end":{"row":24,"column":13}},"text":"F"}},{"time":229364,"data":{"action":"removeText","range":{"start":{"row":24,"column":11},"end":{"row":24,"column":12}},"text":"e"}},{"time":229395,"data":{"action":"removeText","range":{"start":{"row":24,"column":10},"end":{"row":24,"column":11}},"text":"v"}},{"time":229428,"data":{"action":"removeText","range":{"start":{"row":24,"column":9},"end":{"row":24,"column":10}},"text":"o"}},{"time":229458,"data":{"action":"removeText","range":{"start":{"row":24,"column":8},"end":{"row":24,"column":9}},"text":"m"}},{"time":229489,"data":{"action":"removeText","range":{"start":{"row":24,"column":4},"end":{"row":24,"column":8}},"text":"    "}},{"time":229521,"data":{"action":"removeText","range":{"start":{"row":24,"column":0},"end":{"row":24,"column":4}},"text":"    "}},{"time":229551,"data":{"action":"removeText","range":{"start":{"row":23,"column":19},"end":{"row":24,"column":0}},"text":"\n"}},{"time":229583,"data":{"action":"removeText","range":{"start":{"row":23,"column":18},"end":{"row":23,"column":19}},"text":";"}},{"time":229614,"data":{"action":"removeText","range":{"start":{"row":23,"column":17},"end":{"row":23,"column":18}},"text":")"}},{"time":229645,"data":{"action":"removeText","range":{"start":{"row":23,"column":16},"end":{"row":23,"column":17}},"text":"("}},{"time":229676,"data":{"action":"removeText","range":{"start":{"row":23,"column":15},"end":{"row":23,"column":16}},"text":"t"}},{"time":229706,"data":{"action":"removeText","range":{"start":{"row":23,"column":14},"end":{"row":23,"column":15}},"text":"f"}},{"time":229738,"data":{"action":"removeText","range":{"start":{"row":23,"column":13},"end":{"row":23,"column":14}},"text":"e"}},{"time":229769,"data":{"action":"removeText","range":{"start":{"row":23,"column":12},"end":{"row":23,"column":13}},"text":"L"}},{"time":229803,"data":{"action":"removeText","range":{"start":{"row":23,"column":11},"end":{"row":23,"column":12}},"text":"n"}},{"time":229830,"data":{"action":"removeText","range":{"start":{"row":23,"column":10},"end":{"row":23,"column":11}},"text":"r"}},{"time":229861,"data":{"action":"removeText","range":{"start":{"row":23,"column":9},"end":{"row":23,"column":10}},"text":"u"}},{"time":229892,"data":{"action":"removeText","range":{"start":{"row":23,"column":8},"end":{"row":23,"column":9}},"text":"t"}},{"time":229923,"data":{"action":"removeText","range":{"start":{"row":23,"column":4},"end":{"row":23,"column":8}},"text":"    "}},{"time":229955,"data":{"action":"removeText","range":{"start":{"row":23,"column":0},"end":{"row":23,"column":4}},"text":"    "}},{"time":229985,"data":{"action":"removeText","range":{"start":{"row":22,"column":22},"end":{"row":23,"column":0}},"text":"\n"}},{"time":230017,"data":{"action":"removeText","range":{"start":{"row":22,"column":21},"end":{"row":22,"column":22}},"text":";"}},{"time":230048,"data":{"action":"removeText","range":{"start":{"row":22,"column":20},"end":{"row":22,"column":21}},"text":")"}},{"time":230079,"data":{"action":"removeText","range":{"start":{"row":22,"column":19},"end":{"row":22,"column":20}},"text":"("}},{"time":230110,"data":{"action":"removeText","range":{"start":{"row":22,"column":18},"end":{"row":22,"column":19}},"text":"d"}},{"time":230141,"data":{"action":"removeText","range":{"start":{"row":22,"column":17},"end":{"row":22,"column":18}},"text":"r"}},{"time":230171,"data":{"action":"removeText","range":{"start":{"row":22,"column":16},"end":{"row":22,"column":17}},"text":"a"}},{"time":230202,"data":{"action":"removeText","range":{"start":{"row":22,"column":15},"end":{"row":22,"column":16}},"text":"w"}},{"time":230231,"data":{"action":"removeText","range":{"start":{"row":22,"column":14},"end":{"row":22,"column":15}},"text":"r"}},{"time":230266,"data":{"action":"removeText","range":{"start":{"row":22,"column":13},"end":{"row":22,"column":14}},"text":"o"}},{"time":230297,"data":{"action":"removeText","range":{"start":{"row":22,"column":12},"end":{"row":22,"column":13}},"text":"F"}},{"time":230330,"data":{"action":"removeText","range":{"start":{"row":22,"column":11},"end":{"row":22,"column":12}},"text":"e"}},{"time":230362,"data":{"action":"removeText","range":{"start":{"row":22,"column":10},"end":{"row":22,"column":11}},"text":"v"}},{"time":230392,"data":{"action":"removeText","range":{"start":{"row":22,"column":9},"end":{"row":22,"column":10}},"text":"o"}},{"time":230422,"data":{"action":"removeText","range":{"start":{"row":22,"column":8},"end":{"row":22,"column":9}},"text":"m"}},{"time":230456,"data":{"action":"removeText","range":{"start":{"row":22,"column":4},"end":{"row":22,"column":8}},"text":"    "}},{"time":230485,"data":{"action":"removeText","range":{"start":{"row":22,"column":0},"end":{"row":22,"column":4}},"text":"    "}},{"time":230516,"data":{"action":"removeText","range":{"start":{"row":21,"column":19},"end":{"row":22,"column":0}},"text":"\n"}},{"time":230546,"data":{"action":"removeText","range":{"start":{"row":21,"column":18},"end":{"row":21,"column":19}},"text":";"}},{"time":230579,"data":{"action":"removeText","range":{"start":{"row":21,"column":17},"end":{"row":21,"column":18}},"text":")"}},{"time":230610,"data":{"action":"removeText","range":{"start":{"row":21,"column":16},"end":{"row":21,"column":17}},"text":"("}},{"time":230643,"data":{"action":"removeText","range":{"start":{"row":21,"column":15},"end":{"row":21,"column":16}},"text":"t"}},{"time":230673,"data":{"action":"removeText","range":{"start":{"row":21,"column":14},"end":{"row":21,"column":15}},"text":"f"}},{"time":230703,"data":{"action":"removeText","range":{"start":{"row":21,"column":13},"end":{"row":21,"column":14}},"text":"e"}},{"time":230733,"data":{"action":"removeText","range":{"start":{"row":21,"column":12},"end":{"row":21,"column":13}},"text":"L"}},{"time":230766,"data":{"action":"removeText","range":{"start":{"row":21,"column":11},"end":{"row":21,"column":12}},"text":"n"}},{"time":230797,"data":{"action":"removeText","range":{"start":{"row":21,"column":10},"end":{"row":21,"column":11}},"text":"r"}},{"time":230827,"data":{"action":"removeText","range":{"start":{"row":21,"column":9},"end":{"row":21,"column":10}},"text":"u"}},{"time":230857,"data":{"action":"removeText","range":{"start":{"row":21,"column":8},"end":{"row":21,"column":9}},"text":"t"}},{"time":230889,"data":{"action":"removeText","range":{"start":{"row":21,"column":4},"end":{"row":21,"column":8}},"text":"    "}},{"time":230920,"data":{"action":"removeText","range":{"start":{"row":21,"column":0},"end":{"row":21,"column":4}},"text":"    "}},{"time":230951,"data":{"action":"removeText","range":{"start":{"row":20,"column":22},"end":{"row":21,"column":0}},"text":"\n"}},{"time":230983,"data":{"action":"removeText","range":{"start":{"row":20,"column":21},"end":{"row":20,"column":22}},"text":";"}},{"time":231013,"data":{"action":"removeText","range":{"start":{"row":20,"column":20},"end":{"row":20,"column":21}},"text":")"}},{"time":231043,"data":{"action":"removeText","range":{"start":{"row":20,"column":19},"end":{"row":20,"column":20}},"text":"("}},{"time":231075,"data":{"action":"removeText","range":{"start":{"row":20,"column":18},"end":{"row":20,"column":19}},"text":"d"}},{"time":231106,"data":{"action":"removeText","range":{"start":{"row":20,"column":17},"end":{"row":20,"column":18}},"text":"r"}},{"time":231137,"data":{"action":"removeText","range":{"start":{"row":20,"column":16},"end":{"row":20,"column":17}},"text":"a"}},{"time":231168,"data":{"action":"removeText","range":{"start":{"row":20,"column":15},"end":{"row":20,"column":16}},"text":"w"}},{"time":231200,"data":{"action":"removeText","range":{"start":{"row":20,"column":14},"end":{"row":20,"column":15}},"text":"r"}},{"time":231231,"data":{"action":"removeText","range":{"start":{"row":20,"column":13},"end":{"row":20,"column":14}},"text":"o"}},{"time":231264,"data":{"action":"removeText","range":{"start":{"row":20,"column":12},"end":{"row":20,"column":13}},"text":"F"}},{"time":231299,"data":{"action":"removeText","range":{"start":{"row":20,"column":11},"end":{"row":20,"column":12}},"text":"e"}},{"time":231328,"data":{"action":"removeText","range":{"start":{"row":20,"column":10},"end":{"row":20,"column":11}},"text":"v"}},{"time":231359,"data":{"action":"removeText","range":{"start":{"row":20,"column":9},"end":{"row":20,"column":10}},"text":"o"}},{"time":231393,"data":{"action":"removeText","range":{"start":{"row":20,"column":8},"end":{"row":20,"column":9}},"text":"m"}},{"time":231423,"data":{"action":"removeText","range":{"start":{"row":20,"column":4},"end":{"row":20,"column":8}},"text":"    "}},{"time":231454,"data":{"action":"removeText","range":{"start":{"row":20,"column":0},"end":{"row":20,"column":4}},"text":"    "}},{"time":231484,"data":{"action":"removeText","range":{"start":{"row":19,"column":19},"end":{"row":20,"column":0}},"text":"\n"}},{"time":231516,"data":{"action":"removeText","range":{"start":{"row":19,"column":18},"end":{"row":19,"column":19}},"text":";"}},{"time":231548,"data":{"action":"removeText","range":{"start":{"row":19,"column":17},"end":{"row":19,"column":18}},"text":")"}},{"time":231578,"data":{"action":"removeText","range":{"start":{"row":19,"column":16},"end":{"row":19,"column":17}},"text":"("}},{"time":231609,"data":{"action":"removeText","range":{"start":{"row":19,"column":15},"end":{"row":19,"column":16}},"text":"t"}},{"time":231639,"data":{"action":"removeText","range":{"start":{"row":19,"column":14},"end":{"row":19,"column":15}},"text":"f"}},{"time":231670,"data":{"action":"removeText","range":{"start":{"row":19,"column":13},"end":{"row":19,"column":14}},"text":"e"}},{"time":231701,"data":{"action":"removeText","range":{"start":{"row":19,"column":12},"end":{"row":19,"column":13}},"text":"L"}},{"time":231732,"data":{"action":"removeText","range":{"start":{"row":19,"column":11},"end":{"row":19,"column":12}},"text":"n"}},{"time":231762,"data":{"action":"removeText","range":{"start":{"row":19,"column":10},"end":{"row":19,"column":11}},"text":"r"}},{"time":231793,"data":{"action":"removeText","range":{"start":{"row":19,"column":9},"end":{"row":19,"column":10}},"text":"u"}},{"time":231825,"data":{"action":"removeText","range":{"start":{"row":19,"column":8},"end":{"row":19,"column":9}},"text":"t"}},{"time":231856,"data":{"action":"removeText","range":{"start":{"row":19,"column":4},"end":{"row":19,"column":8}},"text":"    "}},{"time":231887,"data":{"action":"removeText","range":{"start":{"row":19,"column":0},"end":{"row":19,"column":4}},"text":"    "}},{"time":231918,"data":{"action":"removeText","range":{"start":{"row":18,"column":22},"end":{"row":19,"column":0}},"text":"\n"}},{"time":231948,"data":{"action":"removeText","range":{"start":{"row":18,"column":21},"end":{"row":18,"column":22}},"text":";"}},{"time":231979,"data":{"action":"removeText","range":{"start":{"row":18,"column":20},"end":{"row":18,"column":21}},"text":")"}},{"time":232011,"data":{"action":"removeText","range":{"start":{"row":18,"column":19},"end":{"row":18,"column":20}},"text":"("}},{"time":232040,"data":{"action":"removeText","range":{"start":{"row":18,"column":18},"end":{"row":18,"column":19}},"text":"d"}},{"time":232071,"data":{"action":"removeText","range":{"start":{"row":18,"column":17},"end":{"row":18,"column":18}},"text":"r"}},{"time":232101,"data":{"action":"removeText","range":{"start":{"row":18,"column":16},"end":{"row":18,"column":17}},"text":"a"}},{"time":232542,"data":{"action":"removeText","range":{"start":{"row":18,"column":15},"end":{"row":18,"column":16}},"text":"w"}},{"time":234352,"data":{"action":"removeText","range":{"start":{"row":18,"column":0},"end":{"row":18,"column":15}},"text":"        moveFor"}},{"time":234352,"data":{"action":"removeLines","range":{"start":{"row":16,"column":0},"end":{"row":18,"column":0}},"nl":"\n","lines":["        moveForward();","        turnLeft();"]}},{"time":235413,"data":{"action":"insertText","range":{"start":{"row":16,"column":0},"end":{"row":16,"column":4}},"text":"    "}},{"time":235669,"data":{"action":"insertText","range":{"start":{"row":16,"column":4},"end":{"row":16,"column":8}},"text":"    "}},{"time":242143,"data":{"action":"insertText","range":{"start":{"row":16,"column":8},"end":{"row":16,"column":9}},"text":"/"}},{"time":242423,"data":{"action":"insertText","range":{"start":{"row":16,"column":9},"end":{"row":16,"column":10}},"text":"/"}},{"time":242656,"data":{"action":"insertText","range":{"start":{"row":16,"column":10},"end":{"row":16,"column":11}},"text":" "}},{"time":243997,"data":{"action":"insertText","range":{"start":{"row":16,"column":11},"end":{"row":16,"column":12}},"text":"d"}},{"time":244398,"data":{"action":"insertText","range":{"start":{"row":16,"column":12},"end":{"row":16,"column":13}},"text":"r"}},{"time":244615,"data":{"action":"insertText","range":{"start":{"row":16,"column":13},"end":{"row":16,"column":14}},"text":"a"}},{"time":244904,"data":{"action":"insertText","range":{"start":{"row":16,"column":14},"end":{"row":16,"column":15}},"text":"w"}},{"time":245130,"data":{"action":"insertText","range":{"start":{"row":16,"column":15},"end":{"row":16,"column":16}},"text":" "}},{"time":245904,"data":{"action":"insertText","range":{"start":{"row":16,"column":16},"end":{"row":16,"column":17}},"text":"e"}},{"time":246464,"data":{"action":"insertText","range":{"start":{"row":16,"column":17},"end":{"row":16,"column":18}},"text":"i"}},{"time":246707,"data":{"action":"insertText","range":{"start":{"row":16,"column":18},"end":{"row":16,"column":19}},"text":"g"}},{"time":246956,"data":{"action":"insertText","range":{"start":{"row":16,"column":19},"end":{"row":16,"column":20}},"text":"h"}},{"time":247156,"data":{"action":"insertText","range":{"start":{"row":16,"column":20},"end":{"row":16,"column":21}},"text":"t"}},{"time":247320,"data":{"action":"insertText","range":{"start":{"row":16,"column":21},"end":{"row":16,"column":22}},"text":" "}},{"time":247622,"data":{"action":"insertText","range":{"start":{"row":16,"column":22},"end":{"row":16,"column":23}},"text":"s"}},{"time":247963,"data":{"action":"insertText","range":{"start":{"row":16,"column":23},"end":{"row":16,"column":24}},"text":"e"}},{"time":248225,"data":{"action":"insertText","range":{"start":{"row":16,"column":24},"end":{"row":16,"column":25}},"text":"g"}},{"time":248436,"data":{"action":"insertText","range":{"start":{"row":16,"column":25},"end":{"row":16,"column":26}},"text":"m"}},{"time":248583,"data":{"action":"insertText","range":{"start":{"row":16,"column":26},"end":{"row":16,"column":27}},"text":"e"}},{"time":248794,"data":{"action":"insertText","range":{"start":{"row":16,"column":27},"end":{"row":16,"column":28}},"text":"n"}},{"time":249117,"data":{"action":"insertText","range":{"start":{"row":16,"column":28},"end":{"row":16,"column":29}},"text":"t"}},{"time":249418,"data":{"action":"insertText","range":{"start":{"row":16,"column":29},"end":{"row":16,"column":30}},"text":"s"}},{"time":249585,"data":{"action":"insertText","range":{"start":{"row":16,"column":30},"end":{"row":16,"column":31}},"text":" "}},{"time":249892,"data":{"action":"insertText","range":{"start":{"row":16,"column":31},"end":{"row":16,"column":32}},"text":"t"}},{"time":250143,"data":{"action":"insertText","range":{"start":{"row":16,"column":32},"end":{"row":16,"column":33}},"text":"o"}},{"time":250287,"data":{"action":"insertText","range":{"start":{"row":16,"column":33},"end":{"row":16,"column":34}},"text":" "}},{"time":250481,"data":{"action":"insertText","range":{"start":{"row":16,"column":34},"end":{"row":16,"column":35}},"text":"d"}},{"time":250831,"data":{"action":"insertText","range":{"start":{"row":16,"column":35},"end":{"row":16,"column":36}},"text":"r"}},{"time":251115,"data":{"action":"insertText","range":{"start":{"row":16,"column":36},"end":{"row":16,"column":37}},"text":"a"}},{"time":251188,"data":{"action":"insertText","range":{"start":{"row":16,"column":37},"end":{"row":16,"column":38}},"text":"w"}},{"time":251393,"data":{"action":"insertText","range":{"start":{"row":16,"column":38},"end":{"row":16,"column":39}},"text":" "}},{"time":251544,"data":{"action":"insertText","range":{"start":{"row":16,"column":39},"end":{"row":16,"column":40}},"text":"a"}},{"time":251694,"data":{"action":"insertText","range":{"start":{"row":16,"column":40},"end":{"row":16,"column":41}},"text":" "}},{"time":252144,"data":{"action":"insertText","range":{"start":{"row":16,"column":41},"end":{"row":16,"column":42}},"text":"c"}},{"time":252401,"data":{"action":"insertText","range":{"start":{"row":16,"column":42},"end":{"row":16,"column":43}},"text":"o"}},{"time":252685,"data":{"action":"insertText","range":{"start":{"row":16,"column":43},"end":{"row":16,"column":44}},"text":"m"}},{"time":252977,"data":{"action":"insertText","range":{"start":{"row":16,"column":44},"end":{"row":16,"column":45}},"text":"p"}},{"time":253260,"data":{"action":"insertText","range":{"start":{"row":16,"column":45},"end":{"row":16,"column":46}},"text":"l"}},{"time":253472,"data":{"action":"insertText","range":{"start":{"row":16,"column":46},"end":{"row":16,"column":47}},"text":"e"}},{"time":253758,"data":{"action":"insertText","range":{"start":{"row":16,"column":47},"end":{"row":16,"column":48}},"text":"t"}},{"time":254089,"data":{"action":"insertText","range":{"start":{"row":16,"column":48},"end":{"row":16,"column":49}},"text":"e"}},{"time":254297,"data":{"action":"insertText","range":{"start":{"row":16,"column":49},"end":{"row":16,"column":50}},"text":" "}},{"time":254563,"data":{"action":"insertText","range":{"start":{"row":16,"column":50},"end":{"row":16,"column":51}},"text":"c"}},{"time":254791,"data":{"action":"insertText","range":{"start":{"row":16,"column":51},"end":{"row":16,"column":52}},"text":"i"}},{"time":255091,"data":{"action":"insertText","range":{"start":{"row":16,"column":52},"end":{"row":16,"column":53}},"text":"r"}},{"time":255385,"data":{"action":"insertText","range":{"start":{"row":16,"column":53},"end":{"row":16,"column":54}},"text":"c"}},{"time":255503,"data":{"action":"insertText","range":{"start":{"row":16,"column":54},"end":{"row":16,"column":55}},"text":"l"}},{"time":255643,"data":{"action":"insertText","range":{"start":{"row":16,"column":55},"end":{"row":16,"column":56}},"text":"e"}},{"time":256930,"data":{"action":"insertText","range":{"start":{"row":16,"column":56},"end":{"row":17,"column":0}},"text":"\n"}},{"time":256930,"data":{"action":"insertText","range":{"start":{"row":17,"column":0},"end":{"row":17,"column":8}},"text":"        "}},{"time":258314,"data":{"action":"insertText","range":{"start":{"row":17,"column":8},"end":{"row":17,"column":9}},"text":"c"}},{"time":258693,"data":{"action":"insertText","range":{"start":{"row":17,"column":9},"end":{"row":17,"column":10}},"text":"i"}},{"time":258909,"data":{"action":"insertText","range":{"start":{"row":17,"column":10},"end":{"row":17,"column":11}},"text":"r"}},{"time":259188,"data":{"action":"insertText","range":{"start":{"row":17,"column":11},"end":{"row":17,"column":12}},"text":"c"}},{"time":259398,"data":{"action":"insertText","range":{"start":{"row":17,"column":12},"end":{"row":17,"column":13}},"text":"l"}},{"time":259646,"data":{"action":"insertText","range":{"start":{"row":17,"column":13},"end":{"row":17,"column":14}},"text":"e"}},{"time":259974,"data":{"action":"insertText","range":{"start":{"row":17,"column":14},"end":{"row":17,"column":15}},"text":"S"}},{"time":260242,"data":{"action":"insertText","range":{"start":{"row":17,"column":15},"end":{"row":17,"column":16}},"text":"e"}},{"time":260450,"data":{"action":"insertText","range":{"start":{"row":17,"column":16},"end":{"row":17,"column":17}},"text":"g"}},{"time":260760,"data":{"action":"insertText","range":{"start":{"row":17,"column":17},"end":{"row":17,"column":18}},"text":"m"}},{"time":260953,"data":{"action":"insertText","range":{"start":{"row":17,"column":18},"end":{"row":17,"column":19}},"text":"e"}},{"time":261161,"data":{"action":"insertText","range":{"start":{"row":17,"column":19},"end":{"row":17,"column":20}},"text":"n"}},{"time":261379,"data":{"action":"insertText","range":{"start":{"row":17,"column":20},"end":{"row":17,"column":21}},"text":"t"}},{"time":261705,"data":{"action":"insertText","range":{"start":{"row":17,"column":21},"end":{"row":17,"column":23}},"text":"()"}},{"time":262186,"data":{"action":"insertText","range":{"start":{"row":17,"column":23},"end":{"row":17,"column":24}},"text":";"}},{"time":262453,"data":{"action":"insertText","range":{"start":{"row":17,"column":24},"end":{"row":18,"column":0}},"text":"\n"}},{"time":262454,"data":{"action":"insertText","range":{"start":{"row":18,"column":0},"end":{"row":18,"column":8}},"text":"        "}},{"time":262688,"data":{"action":"insertText","range":{"start":{"row":18,"column":8},"end":{"row":18,"column":9}},"text":"c"}},{"time":262824,"data":{"action":"insertText","range":{"start":{"row":18,"column":9},"end":{"row":18,"column":10}},"text":"i"}},{"time":263049,"data":{"action":"insertText","range":{"start":{"row":18,"column":10},"end":{"row":18,"column":11}},"text":"r"}},{"time":263322,"data":{"action":"insertText","range":{"start":{"row":18,"column":11},"end":{"row":18,"column":12}},"text":"c"}},{"time":263446,"data":{"action":"insertText","range":{"start":{"row":18,"column":12},"end":{"row":18,"column":13}},"text":"l"}},{"time":263562,"data":{"action":"insertText","range":{"start":{"row":18,"column":13},"end":{"row":18,"column":14}},"text":"e"}},{"time":263804,"data":{"action":"insertText","range":{"start":{"row":18,"column":14},"end":{"row":18,"column":15}},"text":"S"}},{"time":263993,"data":{"action":"insertText","range":{"start":{"row":18,"column":15},"end":{"row":18,"column":16}},"text":"e"}},{"time":264203,"data":{"action":"insertText","range":{"start":{"row":18,"column":16},"end":{"row":18,"column":17}},"text":"g"}},{"time":264389,"data":{"action":"insertText","range":{"start":{"row":18,"column":17},"end":{"row":18,"column":18}},"text":"m"}},{"time":264538,"data":{"action":"insertText","range":{"start":{"row":18,"column":18},"end":{"row":18,"column":19}},"text":"e"}},{"time":264714,"data":{"action":"insertText","range":{"start":{"row":18,"column":19},"end":{"row":18,"column":20}},"text":"n"}},{"time":264895,"data":{"action":"insertText","range":{"start":{"row":18,"column":20},"end":{"row":18,"column":21}},"text":"t"}},{"time":265123,"data":{"action":"insertText","range":{"start":{"row":18,"column":21},"end":{"row":18,"column":23}},"text":"()"}},{"time":265660,"data":{"action":"insertText","range":{"start":{"row":18,"column":23},"end":{"row":18,"column":24}},"text":";"}},{"time":267312,"data":{"action":"insertText","range":{"start":{"row":18,"column":24},"end":{"row":19,"column":0}},"text":"\n"}},{"time":267312,"data":{"action":"insertText","range":{"start":{"row":19,"column":0},"end":{"row":19,"column":8}},"text":"        "}},{"time":267654,"data":{"action":"insertText","range":{"start":{"row":19,"column":8},"end":{"row":19,"column":24}},"text":"circleSegment();"}},{"time":268483,"data":{"action":"insertText","range":{"start":{"row":19,"column":24},"end":{"row":20,"column":0}},"text":"\n"}},{"time":268483,"data":{"action":"insertText","range":{"start":{"row":20,"column":0},"end":{"row":20,"column":8}},"text":"        "}},{"time":268800,"data":{"action":"insertText","range":{"start":{"row":20,"column":8},"end":{"row":20,"column":24}},"text":"circleSegment();"}},{"time":272277,"data":{"action":"insertText","range":{"start":{"row":21,"column":0},"end":{"row":21,"column":24}},"text":"        circleSegment();"}},{"time":272277,"data":{"action":"insertText","range":{"start":{"row":21,"column":24},"end":{"row":22,"column":0}},"text":"\n"}},{"time":272277,"data":{"action":"insertLines","range":{"start":{"row":22,"column":0},"end":{"row":25,"column":0}},"lines":["        circleSegment();","        circleSegment();","        circleSegment();"]}},{"time":281060,"data":{"action":"insertText","range":{"start":{"row":7,"column":4},"end":{"row":8,"column":0}},"text":"\n"}},{"time":281060,"data":{"action":"insertText","range":{"start":{"row":8,"column":0},"end":{"row":8,"column":4}},"text":"    "}},{"time":283542,"data":{"action":"insertText","range":{"start":{"row":8,"column":4},"end":{"row":8,"column":5}},"text":"/"}},{"time":283778,"data":{"action":"insertText","range":{"start":{"row":8,"column":5},"end":{"row":8,"column":6}},"text":"/"}},{"time":283902,"data":{"action":"insertText","range":{"start":{"row":8,"column":6},"end":{"row":8,"column":7}},"text":" "}},{"time":284858,"data":{"action":"insertText","range":{"start":{"row":8,"column":7},"end":{"row":8,"column":8}},"text":"d"}},{"time":285276,"data":{"action":"insertText","range":{"start":{"row":8,"column":8},"end":{"row":8,"column":9}},"text":"r"}},{"time":285645,"data":{"action":"insertText","range":{"start":{"row":8,"column":9},"end":{"row":8,"column":10}},"text":"a"}},{"time":286094,"data":{"action":"insertText","range":{"start":{"row":8,"column":10},"end":{"row":8,"column":11}},"text":"w"}},{"time":286394,"data":{"action":"insertText","range":{"start":{"row":8,"column":11},"end":{"row":8,"column":12}},"text":" "}},{"time":287908,"data":{"action":"insertText","range":{"start":{"row":8,"column":12},"end":{"row":8,"column":13}},"text":"a"}},{"time":288263,"data":{"action":"insertText","range":{"start":{"row":8,"column":13},"end":{"row":8,"column":14}},"text":" "}},{"time":289029,"data":{"action":"insertText","range":{"start":{"row":8,"column":14},"end":{"row":8,"column":15}},"text":"p"}},{"time":289670,"data":{"action":"insertText","range":{"start":{"row":8,"column":15},"end":{"row":8,"column":16}},"text":"a"}},{"time":290289,"data":{"action":"insertText","range":{"start":{"row":8,"column":16},"end":{"row":8,"column":17}},"text":"t"}},{"time":290898,"data":{"action":"insertText","range":{"start":{"row":8,"column":17},"end":{"row":8,"column":18}},"text":"t"}},{"time":291283,"data":{"action":"insertText","range":{"start":{"row":8,"column":18},"end":{"row":8,"column":19}},"text":"e"}},{"time":291670,"data":{"action":"insertText","range":{"start":{"row":8,"column":19},"end":{"row":8,"column":20}},"text":"r"}},{"time":292083,"data":{"action":"insertText","range":{"start":{"row":8,"column":20},"end":{"row":8,"column":21}},"text":"n"}},{"time":300357,"data":{"action":"insertText","range":{"start":{"row":9,"column":27},"end":{"row":10,"column":0}},"text":"\n"}},{"time":300358,"data":{"action":"insertText","range":{"start":{"row":10,"column":0},"end":{"row":10,"column":8}},"text":"        "}},{"time":301035,"data":{"action":"insertText","range":{"start":{"row":10,"column":8},"end":{"row":10,"column":9}},"text":"/"}},{"time":301286,"data":{"action":"insertText","range":{"start":{"row":10,"column":9},"end":{"row":10,"column":10}},"text":"/"}},{"time":301604,"data":{"action":"insertText","range":{"start":{"row":10,"column":10},"end":{"row":10,"column":11}},"text":" "}},{"time":302455,"data":{"action":"insertText","range":{"start":{"row":10,"column":11},"end":{"row":10,"column":12}},"text":"d"}},{"time":302987,"data":{"action":"insertText","range":{"start":{"row":10,"column":12},"end":{"row":10,"column":13}},"text":"r"}},{"time":304117,"data":{"action":"insertText","range":{"start":{"row":10,"column":13},"end":{"row":10,"column":14}},"text":"a"}},{"time":304524,"data":{"action":"insertText","range":{"start":{"row":10,"column":14},"end":{"row":10,"column":15}},"text":"w"}},{"time":304798,"data":{"action":"insertText","range":{"start":{"row":10,"column":15},"end":{"row":10,"column":16}},"text":" "}},{"time":305412,"data":{"action":"insertText","range":{"start":{"row":10,"column":16},"end":{"row":10,"column":17}},"text":"a"}},{"time":305626,"data":{"action":"insertText","range":{"start":{"row":10,"column":17},"end":{"row":10,"column":18}},"text":" "}},{"time":306145,"data":{"action":"insertText","range":{"start":{"row":10,"column":18},"end":{"row":10,"column":19}},"text":"c"}},{"time":306394,"data":{"action":"insertText","range":{"start":{"row":10,"column":19},"end":{"row":10,"column":20}},"text":"i"}},{"time":306730,"data":{"action":"insertText","range":{"start":{"row":10,"column":20},"end":{"row":10,"column":21}},"text":"r"}},{"time":307029,"data":{"action":"insertText","range":{"start":{"row":10,"column":21},"end":{"row":10,"column":22}},"text":"c"}},{"time":307294,"data":{"action":"insertText","range":{"start":{"row":10,"column":22},"end":{"row":10,"column":23}},"text":"l"}},{"time":307679,"data":{"action":"insertText","range":{"start":{"row":10,"column":23},"end":{"row":10,"column":24}},"text":"e"}},{"time":307988,"data":{"action":"insertText","range":{"start":{"row":10,"column":24},"end":{"row":10,"column":25}},"text":","}},{"time":308312,"data":{"action":"insertText","range":{"start":{"row":10,"column":25},"end":{"row":10,"column":26}},"text":" "}},{"time":309413,"data":{"action":"insertText","range":{"start":{"row":10,"column":26},"end":{"row":10,"column":27}},"text":"t"}},{"time":309811,"data":{"action":"insertText","range":{"start":{"row":10,"column":27},"end":{"row":10,"column":28}},"text":"h"}},{"time":310092,"data":{"action":"insertText","range":{"start":{"row":10,"column":28},"end":{"row":10,"column":29}},"text":"e"}},{"time":310578,"data":{"action":"insertText","range":{"start":{"row":10,"column":29},"end":{"row":10,"column":30}},"text":"n"}},{"time":310766,"data":{"action":"insertText","range":{"start":{"row":10,"column":30},"end":{"row":10,"column":31}},"text":" "}},{"time":311302,"data":{"action":"insertText","range":{"start":{"row":10,"column":31},"end":{"row":10,"column":32}},"text":"m"}},{"time":311888,"data":{"action":"insertText","range":{"start":{"row":10,"column":32},"end":{"row":10,"column":33}},"text":"o"}},{"time":312163,"data":{"action":"insertText","range":{"start":{"row":10,"column":33},"end":{"row":10,"column":34}},"text":"v"}},{"time":312551,"data":{"action":"insertText","range":{"start":{"row":10,"column":34},"end":{"row":10,"column":35}},"text":"e"}},{"time":312656,"data":{"action":"insertText","range":{"start":{"row":10,"column":35},"end":{"row":10,"column":36}},"text":" "}},{"time":313755,"data":{"action":"insertText","range":{"start":{"row":10,"column":36},"end":{"row":10,"column":37}},"text":"t"}},{"time":314335,"data":{"action":"insertText","range":{"start":{"row":10,"column":37},"end":{"row":10,"column":38}},"text":"h"}},{"time":314549,"data":{"action":"insertText","range":{"start":{"row":10,"column":38},"end":{"row":10,"column":39}},"text":"e"}},{"time":314767,"data":{"action":"insertText","range":{"start":{"row":10,"column":39},"end":{"row":10,"column":40}},"text":" "}},{"time":315259,"data":{"action":"insertText","range":{"start":{"row":10,"column":40},"end":{"row":10,"column":41}},"text":"r"}},{"time":315506,"data":{"action":"insertText","range":{"start":{"row":10,"column":41},"end":{"row":10,"column":42}},"text":"o"}},{"time":315798,"data":{"action":"insertText","range":{"start":{"row":10,"column":42},"end":{"row":10,"column":43}},"text":"c"}},{"time":316025,"data":{"action":"insertText","range":{"start":{"row":10,"column":43},"end":{"row":10,"column":44}},"text":"k"}},{"time":316215,"data":{"action":"insertText","range":{"start":{"row":10,"column":44},"end":{"row":10,"column":45}},"text":"e"}},{"time":316577,"data":{"action":"insertText","range":{"start":{"row":10,"column":45},"end":{"row":10,"column":46}},"text":"t"}},{"time":319182,"data":{"action":"insertText","range":{"start":{"row":10,"column":46},"end":{"row":11,"column":0}},"text":"\n"}},{"time":319182,"data":{"action":"insertText","range":{"start":{"row":11,"column":0},"end":{"row":11,"column":8}},"text":"        "}},{"time":319547,"data":{"action":"insertText","range":{"start":{"row":11,"column":8},"end":{"row":11,"column":9}},"text":"/"}},{"time":319809,"data":{"action":"insertText","range":{"start":{"row":11,"column":9},"end":{"row":11,"column":10}},"text":"/"}},{"time":320086,"data":{"action":"insertText","range":{"start":{"row":11,"column":10},"end":{"row":11,"column":11}},"text":" "}},{"time":322128,"data":{"action":"insertText","range":{"start":{"row":11,"column":11},"end":{"row":11,"column":12}},"text":"f"}},{"time":322385,"data":{"action":"insertText","range":{"start":{"row":11,"column":12},"end":{"row":11,"column":13}},"text":"o"}},{"time":322778,"data":{"action":"insertText","range":{"start":{"row":11,"column":13},"end":{"row":11,"column":14}},"text":"r"}},{"time":323077,"data":{"action":"insertText","range":{"start":{"row":11,"column":14},"end":{"row":11,"column":15}},"text":" "}},{"time":323470,"data":{"action":"insertText","range":{"start":{"row":11,"column":15},"end":{"row":11,"column":16}},"text":"t"}},{"time":323811,"data":{"action":"insertText","range":{"start":{"row":11,"column":16},"end":{"row":11,"column":17}},"text":"h"}},{"time":324113,"data":{"action":"insertText","range":{"start":{"row":11,"column":17},"end":{"row":11,"column":18}},"text":"e"}},{"time":324302,"data":{"action":"insertText","range":{"start":{"row":11,"column":18},"end":{"row":11,"column":19}},"text":" "}},{"time":324808,"data":{"action":"insertText","range":{"start":{"row":11,"column":19},"end":{"row":11,"column":20}},"text":"n"}},{"time":325026,"data":{"action":"insertText","range":{"start":{"row":11,"column":20},"end":{"row":11,"column":21}},"text":"e"}},{"time":325366,"data":{"action":"insertText","range":{"start":{"row":11,"column":21},"end":{"row":11,"column":22}},"text":"x"}},{"time":325766,"data":{"action":"insertText","range":{"start":{"row":11,"column":22},"end":{"row":11,"column":23}},"text":"t"}},{"time":325928,"data":{"action":"insertText","range":{"start":{"row":11,"column":23},"end":{"row":11,"column":24}},"text":" "}},{"time":326227,"data":{"action":"insertText","range":{"start":{"row":11,"column":24},"end":{"row":11,"column":25}},"text":"p"}},{"time":326510,"data":{"action":"insertText","range":{"start":{"row":11,"column":25},"end":{"row":11,"column":26}},"text":"a"}},{"time":326874,"data":{"action":"insertText","range":{"start":{"row":11,"column":26},"end":{"row":11,"column":27}},"text":"t"}},{"time":327112,"data":{"action":"insertText","range":{"start":{"row":11,"column":27},"end":{"row":11,"column":28}},"text":"t"}},{"time":327624,"data":{"action":"insertText","range":{"start":{"row":11,"column":28},"end":{"row":11,"column":29}},"text":"e"}},{"time":327984,"data":{"action":"insertText","range":{"start":{"row":11,"column":29},"end":{"row":11,"column":30}},"text":"r"}},{"time":328256,"data":{"action":"insertText","range":{"start":{"row":11,"column":30},"end":{"row":11,"column":31}},"text":"n"}},{"time":342175,"data":{"action":"insertText","range":{"start":{"row":1,"column":44},"end":{"row":2,"column":0}},"text":"\n"}},{"time":342175,"data":{"action":"insertText","range":{"start":{"row":2,"column":0},"end":{"row":2,"column":8}},"text":"        "}},{"time":343553,"data":{"action":"insertText","range":{"start":{"row":2,"column":8},"end":{"row":2,"column":9}},"text":"/"}},{"time":343803,"data":{"action":"insertText","range":{"start":{"row":2,"column":9},"end":{"row":2,"column":10}},"text":"/"}},{"time":343937,"data":{"action":"insertText","range":{"start":{"row":2,"column":10},"end":{"row":2,"column":11}},"text":" "}},{"time":344942,"data":{"action":"insertText","range":{"start":{"row":2,"column":11},"end":{"row":2,"column":12}},"text":"d"}},{"time":345459,"data":{"action":"insertText","range":{"start":{"row":2,"column":12},"end":{"row":2,"column":13}},"text":"r"}},{"time":345880,"data":{"action":"insertText","range":{"start":{"row":2,"column":13},"end":{"row":2,"column":14}},"text":"a"}},{"time":346363,"data":{"action":"insertText","range":{"start":{"row":2,"column":14},"end":{"row":2,"column":15}},"text":"w"}},{"time":346589,"data":{"action":"insertText","range":{"start":{"row":2,"column":15},"end":{"row":2,"column":16}},"text":" "}},{"time":348058,"data":{"action":"insertText","range":{"start":{"row":2,"column":16},"end":{"row":2,"column":17}},"text":"a"}},{"time":348592,"data":{"action":"insertText","range":{"start":{"row":2,"column":17},"end":{"row":2,"column":18}},"text":" "}},{"time":349789,"data":{"action":"insertText","range":{"start":{"row":2,"column":18},"end":{"row":2,"column":19}},"text":"c"}},{"time":349986,"data":{"action":"insertText","range":{"start":{"row":2,"column":19},"end":{"row":2,"column":20}},"text":"o"}},{"time":350386,"data":{"action":"insertText","range":{"start":{"row":2,"column":20},"end":{"row":2,"column":21}},"text":"m"}},{"time":350647,"data":{"action":"insertText","range":{"start":{"row":2,"column":21},"end":{"row":2,"column":22}},"text":"p"}},{"time":350890,"data":{"action":"insertText","range":{"start":{"row":2,"column":22},"end":{"row":2,"column":23}},"text":"l"}},{"time":351127,"data":{"action":"insertText","range":{"start":{"row":2,"column":23},"end":{"row":2,"column":24}},"text":"e"}},{"time":351455,"data":{"action":"insertText","range":{"start":{"row":2,"column":24},"end":{"row":2,"column":25}},"text":"x"}},{"time":351796,"data":{"action":"insertText","range":{"start":{"row":2,"column":25},"end":{"row":2,"column":26}},"text":" "}},{"time":352353,"data":{"action":"insertText","range":{"start":{"row":2,"column":26},"end":{"row":2,"column":27}},"text":"p"}},{"time":352559,"data":{"action":"insertText","range":{"start":{"row":2,"column":27},"end":{"row":2,"column":28}},"text":"a"}},{"time":352876,"data":{"action":"insertText","range":{"start":{"row":2,"column":28},"end":{"row":2,"column":29}},"text":"t"}},{"time":353134,"data":{"action":"insertText","range":{"start":{"row":2,"column":29},"end":{"row":2,"column":30}},"text":"t"}},{"time":353393,"data":{"action":"insertText","range":{"start":{"row":2,"column":30},"end":{"row":2,"column":31}},"text":"e"}},{"time":353709,"data":{"action":"insertText","range":{"start":{"row":2,"column":31},"end":{"row":2,"column":32}},"text":"r"}},{"time":354093,"data":{"action":"insertText","range":{"start":{"row":2,"column":32},"end":{"row":2,"column":33}},"text":"n"}},{"time":354360,"data":{"action":"insertText","range":{"start":{"row":2,"column":33},"end":{"row":2,"column":34}},"text":" "}},{"time":354868,"data":{"action":"insertText","range":{"start":{"row":2,"column":34},"end":{"row":2,"column":35}},"text":"b"}},{"time":355448,"data":{"action":"insertText","range":{"start":{"row":2,"column":35},"end":{"row":2,"column":36}},"text":"y"}},{"time":355809,"data":{"action":"insertText","range":{"start":{"row":2,"column":36},"end":{"row":2,"column":37}},"text":" "}},{"time":356394,"data":{"action":"insertText","range":{"start":{"row":2,"column":37},"end":{"row":2,"column":38}},"text":"r"}},{"time":356633,"data":{"action":"insertText","range":{"start":{"row":2,"column":38},"end":{"row":2,"column":39}},"text":"e"}},{"time":356877,"data":{"action":"insertText","range":{"start":{"row":2,"column":39},"end":{"row":2,"column":40}},"text":"p"}},{"time":357067,"data":{"action":"insertText","range":{"start":{"row":2,"column":40},"end":{"row":2,"column":41}},"text":"e"}},{"time":357352,"data":{"action":"insertText","range":{"start":{"row":2,"column":41},"end":{"row":2,"column":42}},"text":"a"}},{"time":357691,"data":{"action":"insertText","range":{"start":{"row":2,"column":42},"end":{"row":2,"column":43}},"text":"t"}},{"time":357916,"data":{"action":"insertText","range":{"start":{"row":2,"column":43},"end":{"row":2,"column":44}},"text":"i"}},{"time":358126,"data":{"action":"insertText","range":{"start":{"row":2,"column":44},"end":{"row":2,"column":45}},"text":"n"}},{"time":358446,"data":{"action":"insertText","range":{"start":{"row":2,"column":45},"end":{"row":2,"column":46}},"text":"g"}},{"time":358920,"data":{"action":"insertText","range":{"start":{"row":2,"column":46},"end":{"row":3,"column":0}},"text":"\n"}},{"time":358920,"data":{"action":"insertText","range":{"start":{"row":3,"column":0},"end":{"row":3,"column":8}},"text":"        "}},{"time":359286,"data":{"action":"insertText","range":{"start":{"row":3,"column":8},"end":{"row":3,"column":9}},"text":"/"}},{"time":359478,"data":{"action":"insertText","range":{"start":{"row":3,"column":9},"end":{"row":3,"column":10}},"text":"/"}},{"time":359614,"data":{"action":"insertText","range":{"start":{"row":3,"column":10},"end":{"row":3,"column":11}},"text":" "}},{"time":360163,"data":{"action":"insertText","range":{"start":{"row":3,"column":11},"end":{"row":3,"column":12}},"text":"a"}},{"time":360338,"data":{"action":"insertText","range":{"start":{"row":3,"column":12},"end":{"row":3,"column":13}},"text":" "}},{"time":360806,"data":{"action":"insertText","range":{"start":{"row":3,"column":13},"end":{"row":3,"column":14}},"text":"s"}},{"time":360939,"data":{"action":"insertText","range":{"start":{"row":3,"column":14},"end":{"row":3,"column":15}},"text":"i"}},{"time":361299,"data":{"action":"insertText","range":{"start":{"row":3,"column":15},"end":{"row":3,"column":16}},"text":"m"}},{"time":361530,"data":{"action":"insertText","range":{"start":{"row":3,"column":16},"end":{"row":3,"column":17}},"text":"p"}},{"time":361765,"data":{"action":"insertText","range":{"start":{"row":3,"column":17},"end":{"row":3,"column":18}},"text":"l"}},{"time":362057,"data":{"action":"insertText","range":{"start":{"row":3,"column":18},"end":{"row":3,"column":19}},"text":"e"}},{"time":362328,"data":{"action":"insertText","range":{"start":{"row":3,"column":19},"end":{"row":3,"column":20}},"text":"r"}},{"time":362567,"data":{"action":"insertText","range":{"start":{"row":3,"column":20},"end":{"row":3,"column":21}},"text":" "}},{"time":362800,"data":{"action":"insertText","range":{"start":{"row":3,"column":21},"end":{"row":3,"column":22}},"text":"p"}},{"time":363261,"data":{"action":"insertText","range":{"start":{"row":3,"column":22},"end":{"row":3,"column":23}},"text":"a"}},{"time":363526,"data":{"action":"insertText","range":{"start":{"row":3,"column":23},"end":{"row":3,"column":24}},"text":"t"}},{"time":363740,"data":{"action":"insertText","range":{"start":{"row":3,"column":24},"end":{"row":3,"column":25}},"text":"t"}},{"time":364124,"data":{"action":"insertText","range":{"start":{"row":3,"column":25},"end":{"row":3,"column":26}},"text":"e"}},{"time":364410,"data":{"action":"insertText","range":{"start":{"row":3,"column":26},"end":{"row":3,"column":27}},"text":"r"}},{"time":364840,"data":{"action":"insertText","range":{"start":{"row":3,"column":27},"end":{"row":3,"column":28}},"text":"n"}},{"time":371851,"data":{"action":"insertText","range":{"start":{"row":7,"column":18},"end":{"row":8,"column":0}},"text":"\n"}},{"time":371851,"data":{"action":"insertText","range":{"start":{"row":8,"column":0},"end":{"row":8,"column":8}},"text":"        "}},{"time":372517,"data":{"action":"insertText","range":{"start":{"row":8,"column":8},"end":{"row":8,"column":9}},"text":"p"}},{"time":372831,"data":{"action":"insertText","range":{"start":{"row":8,"column":9},"end":{"row":8,"column":10}},"text":"a"}},{"time":373162,"data":{"action":"insertText","range":{"start":{"row":8,"column":10},"end":{"row":8,"column":11}},"text":"t"}},{"time":373480,"data":{"action":"insertText","range":{"start":{"row":8,"column":11},"end":{"row":8,"column":12}},"text":"t"}},{"time":373776,"data":{"action":"insertText","range":{"start":{"row":8,"column":12},"end":{"row":8,"column":13}},"text":"e"}},{"time":374081,"data":{"action":"insertText","range":{"start":{"row":8,"column":13},"end":{"row":8,"column":14}},"text":"r"}},{"time":374461,"data":{"action":"insertText","range":{"start":{"row":8,"column":14},"end":{"row":8,"column":15}},"text":"n"}},{"time":374894,"data":{"action":"insertText","range":{"start":{"row":8,"column":15},"end":{"row":8,"column":17}},"text":"()"}},{"time":376028,"data":{"action":"insertText","range":{"start":{"row":8,"column":17},"end":{"row":8,"column":18}},"text":";"}}]}